EESchema Schematic File Version 4
LIBS:esp_hall_sensor_step_down_v3-cache
EELAYER 30 0
EELAYER END
$Descr A4 11693 8268
encoding utf-8
Sheet 1 4
Title ""
Date ""
Rev ""
Comp ""
Comment1 ""
Comment2 ""
Comment3 ""
Comment4 ""
$EndDescr
$Comp
L RF_Module:ESP-12E U2
U 1 1 5DA4285A
P 5690 3720
F 0 "U2" H 5410 4510 50  0000 C CNN
F 1 "ESP-12E" H 6000 4520 50  0000 C CNN
F 2 "RF_Module:ESP-12E" H 5690 3720 50  0001 C CNN
F 3 "http://wiki.ai-thinker.com/_media/esp8266/esp8266_series_modules_user_manual_v1.1.pdf" H 5340 3820 50  0001 C CNN
	1    5690 3720
	1    0    0    -1  
$EndComp
$Comp
L power:GND #PWR019
U 1 1 5DA59AC0
P 5690 4520
F 0 "#PWR019" H 5690 4270 50  0001 C CNN
F 1 "GND" H 5695 4347 50  0000 C CNN
F 2 "" H 5690 4520 50  0001 C CNN
F 3 "" H 5690 4520 50  0001 C CNN
	1    5690 4520
	1    0    0    -1  
$EndComp
Wire Wire Line
	5690 4520 5690 4420
$Comp
L power:+3.3V #PWR018
U 1 1 5DA7F716
P 5690 2580
F 0 "#PWR018" H 5690 2430 50  0001 C CNN
F 1 "+3.3V" H 5705 2753 50  0000 C CNN
F 2 "" H 5690 2580 50  0001 C CNN
F 3 "" H 5690 2580 50  0001 C CNN
	1    5690 2580
	1    0    0    -1  
$EndComp
Wire Wire Line
	5690 2920 5690 2580
$Comp
L Device:R R9
U 1 1 5DA80570
P 4860 3320
F 0 "R9" V 4770 3240 50  0000 C CNN
F 1 "10k" V 4770 3410 50  0000 C CNN
F 2 "Resistor_SMD:R_0805_2012Metric" V 4790 3320 50  0001 C CNN
F 3 "~" H 4860 3320 50  0001 C CNN
	1    4860 3320
	0    1    1    0   
$EndComp
$Comp
L Device:R R16
U 1 1 5DA81482
P 7340 4020
F 0 "R16" V 7250 3940 50  0000 C CNN
F 1 "10k" V 7250 4110 50  0000 C CNN
F 2 "Resistor_SMD:R_0805_2012Metric" V 7270 4020 50  0001 C CNN
F 3 "~" H 7340 4020 50  0001 C CNN
	1    7340 4020
	0    1    1    0   
$EndComp
Wire Wire Line
	4710 3320 4590 3320
Wire Wire Line
	5090 3320 5010 3320
$Comp
L power:GND #PWR025
U 1 1 5DA8A733
P 7610 4020
F 0 "#PWR025" H 7610 3770 50  0001 C CNN
F 1 "GND" V 7615 3892 50  0000 R CNN
F 2 "" H 7610 4020 50  0001 C CNN
F 3 "" H 7610 4020 50  0001 C CNN
	1    7610 4020
	0    -1   -1   0   
$EndComp
Wire Wire Line
	7610 4020 7490 4020
Wire Wire Line
	6420 3220 6290 3220
Wire Wire Line
	6290 3420 6430 3420
$Comp
L Device:R R15
U 1 1 5DA8CDBF
P 6440 2750
F 0 "R15" V 6350 2670 50  0000 C CNN
F 1 "10k" V 6350 2840 50  0000 C CNN
F 2 "Resistor_SMD:R_0805_2012Metric" V 6370 2750 50  0001 C CNN
F 3 "~" H 6440 2750 50  0001 C CNN
	1    6440 2750
	-1   0    0    1   
$EndComp
Wire Wire Line
	5690 2580 6440 2580
Wire Wire Line
	6440 2580 6440 2600
Connection ~ 5690 2580
Wire Wire Line
	6290 3120 6440 3120
Wire Wire Line
	6440 3120 6440 2900
Text Label 6570 3120 0    50   ~ 0
GPIO0
Wire Wire Line
	6570 3120 6440 3120
Connection ~ 6440 3120
Wire Wire Line
	6430 3520 6290 3520
Wire Wire Line
	6290 3620 6430 3620
$Sheet
S 8510 4010 770  300 
U 5DB0642B
F0 "Step_Down" 50
F1 "Step_Down.sch" 50
F2 "Vin" I L 8510 4090 50 
F3 "Enable" I L 8510 4200 50 
F4 "GND" B R 9280 4200 50 
F5 "Vout_5V" O R 9280 4090 50 
$EndSheet
$Comp
L power:GND #PWR022
U 1 1 5DAF0707
P 5970 2020
F 0 "#PWR022" H 5970 1770 50  0001 C CNN
F 1 "GND" H 5975 1847 50  0000 C CNN
F 2 "" H 5970 2020 50  0001 C CNN
F 3 "" H 5970 2020 50  0001 C CNN
	1    5970 2020
	1    0    0    -1  
$EndComp
$Comp
L power:VCC #PWR029
U 1 1 5DAF1040
P 8360 4050
F 0 "#PWR029" H 8360 3900 50  0001 C CNN
F 1 "VCC" H 8377 4223 50  0000 C CNN
F 2 "" H 8360 4050 50  0001 C CNN
F 3 "" H 8360 4050 50  0001 C CNN
	1    8360 4050
	1    0    0    -1  
$EndComp
Wire Wire Line
	9490 4200 9280 4200
NoConn ~ 5090 3720
NoConn ~ 5090 3820
NoConn ~ 5090 4020
NoConn ~ 5090 4120
NoConn ~ 5090 4220
Wire Wire Line
	8510 4090 8360 4090
Wire Wire Line
	8360 4090 8360 4050
Text Notes 950  1900 0    50   ~ 0
Input Voltage Smoothing
$Comp
L power:+3.3V #PWR01
U 1 1 5DB1097F
P 960 6890
F 0 "#PWR01" H 960 6740 50  0001 C CNN
F 1 "+3.3V" H 975 7063 50  0000 C CNN
F 2 "" H 960 6890 50  0001 C CNN
F 3 "" H 960 6890 50  0001 C CNN
	1    960  6890
	1    0    0    -1  
$EndComp
$Comp
L power:GND #PWR02
U 1 1 5DB111F1
P 960 7460
F 0 "#PWR02" H 960 7210 50  0001 C CNN
F 1 "GND" H 965 7287 50  0000 C CNN
F 2 "" H 960 7460 50  0001 C CNN
F 3 "" H 960 7460 50  0001 C CNN
	1    960  7460
	1    0    0    -1  
$EndComp
Wire Wire Line
	960  7460 960  7390
Wire Wire Line
	960  6950 960  6890
Text Notes 630  6660 0    50   ~ 0
Capacitors
$Comp
L power:VCC #PWR09
U 1 1 5DB1FACE
P 2760 2160
F 0 "#PWR09" H 2760 2010 50  0001 C CNN
F 1 "VCC" H 2777 2333 50  0000 C CNN
F 2 "" H 2760 2160 50  0001 C CNN
F 3 "" H 2760 2160 50  0001 C CNN
	1    2760 2160
	1    0    0    -1  
$EndComp
$Comp
L power:GND #PWR010
U 1 1 5DB20451
P 2760 2460
F 0 "#PWR010" H 2760 2210 50  0001 C CNN
F 1 "GND" H 2765 2287 50  0000 C CNN
F 2 "" H 2760 2460 50  0001 C CNN
F 3 "" H 2760 2460 50  0001 C CNN
	1    2760 2460
	1    0    0    -1  
$EndComp
Wire Wire Line
	8280 4200 8510 4200
$Comp
L Device:L L1
U 1 1 5DB0265B
P 1900 2160
F 0 "L1" V 1719 2160 50  0000 C CNN
F 1 "470uH" V 1810 2160 50  0000 C CNN
F 2 "Inductor_SMD:L_7.3x7.3_H4.5" H 1900 2160 50  0001 C CNN
F 3 "~" H 1900 2160 50  0001 C CNN
	1    1900 2160
	0    1    1    0   
$EndComp
Wire Wire Line
	1590 2160 1750 2160
Wire Wire Line
	1590 2160 1270 2160
Connection ~ 1590 2160
$Comp
L Device:D_Schottky D2
U 1 1 5DB0141D
P 1590 2310
F 0 "D2" V 1544 2389 50  0000 L CNN
F 1 "SS34" V 1635 2389 50  0000 L CNN
F 2 "Diode_SMD:D_SMA" H 1590 2310 50  0001 C CNN
F 3 "http://www.chinesechip.com/files/2015-06/8b5aa353-e559-4708-bf71-5dbd56a0a342.pdf" H 1590 2310 50  0001 C CNN
	1    1590 2310
	0    1    1    0   
$EndComp
NoConn ~ 8280 4200
Wire Notes Line
	8500 5250 11200 5250
Wire Notes Line
	8500 5250 8500 6530
Text Notes 8800 5490 0    50   ~ 0
Mounting Holes
Wire Wire Line
	6290 3720 6430 3720
Wire Notes Line
	470  1730 3290 1730
Text Label 6420 3220 0    50   ~ 0
TX_ESP
Wire Notes Line
	490  2800 3310 2800
$Comp
L power:GND #PWR030
U 1 1 5DBA164B
P 8700 6280
F 0 "#PWR030" H 8700 6030 50  0001 C CNN
F 1 "GND" H 8705 6107 50  0000 C CNN
F 2 "" H 8700 6280 50  0001 C CNN
F 3 "" H 8700 6280 50  0001 C CNN
	1    8700 6280
	1    0    0    -1  
$EndComp
Wire Wire Line
	8700 6280 9000 6280
Wire Wire Line
	9000 6280 9000 6200
Wire Wire Line
	9000 6280 9700 6280
Wire Wire Line
	9700 6280 9700 6200
Connection ~ 9000 6280
Wire Wire Line
	8980 5870 8700 5870
Wire Wire Line
	8700 5870 8700 6280
Connection ~ 8700 6280
Wire Wire Line
	9700 5870 8980 5870
Connection ~ 8980 5870
$Comp
L Device:LED D3
U 1 1 5DBC7D84
P 2130 3380
F 0 "D3" H 2123 3125 50  0000 C CNN
F 1 "LED" H 2123 3216 50  0000 C CNN
F 2 "LED_SMD:LED_0805_2012Metric" H 2130 3380 50  0001 C CNN
F 3 "~" H 2130 3380 50  0001 C CNN
	1    2130 3380
	-1   0    0    1   
$EndComp
$Comp
L Device:R R3
U 1 1 5DBCAEEF
P 1680 3380
F 0 "R3" V 1590 3300 50  0000 C CNN
F 1 "1k" V 1590 3470 50  0000 C CNN
F 2 "Resistor_SMD:R_0805_2012Metric" V 1610 3380 50  0001 C CNN
F 3 "~" H 1680 3380 50  0001 C CNN
	1    1680 3380
	0    1    1    0   
$EndComp
Wire Wire Line
	1980 3380 1830 3380
$Comp
L power:GND #PWR08
U 1 1 5DBCDB37
P 2680 3480
F 0 "#PWR08" H 2680 3230 50  0001 C CNN
F 1 "GND" H 2685 3307 50  0000 C CNN
F 2 "" H 2680 3480 50  0001 C CNN
F 3 "" H 2680 3480 50  0001 C CNN
	1    2680 3480
	1    0    0    -1  
$EndComp
Wire Wire Line
	2280 3380 2680 3380
Wire Wire Line
	2680 3380 2680 3480
Text Notes 780  3090 0    50   ~ 0
Status LED
$Comp
L Device:C C1
U 1 1 5DBDE9FF
P 1390 7240
F 0 "C1" H 1505 7286 50  0000 L CNN
F 1 "100nF" H 1505 7195 50  0000 L CNN
F 2 "Capacitor_SMD:C_0805_2012Metric" H 1428 7090 50  0001 C CNN
F 3 "~" H 1390 7240 50  0001 C CNN
	1    1390 7240
	1    0    0    -1  
$EndComp
$Comp
L Device:C C2
U 1 1 5DBF6A88
P 1880 7240
F 0 "C2" H 1995 7286 50  0000 L CNN
F 1 "100uF" H 1995 7195 50  0000 L CNN
F 2 "Capacitor_SMD:C_1206_3216Metric" H 1918 7090 50  0001 C CNN
F 3 "~" H 1880 7240 50  0001 C CNN
	1    1880 7240
	1    0    0    -1  
$EndComp
$Comp
L power:+3.3V #PWR014
U 1 1 5DA9F453
P 4590 3320
F 0 "#PWR014" H 4590 3170 50  0001 C CNN
F 1 "+3.3V" V 4605 3448 50  0000 L CNN
F 2 "" H 4590 3320 50  0001 C CNN
F 3 "" H 4590 3320 50  0001 C CNN
	1    4590 3320
	0    -1   -1   0   
$EndComp
$Comp
L Device:C C4
U 1 1 5DC09A7A
P 2380 7240
F 0 "C4" H 2495 7286 50  0000 L CNN
F 1 "100uF" H 2495 7195 50  0000 L CNN
F 2 "Capacitor_SMD:C_1206_3216Metric" H 2418 7090 50  0001 C CNN
F 3 "~" H 2380 7240 50  0001 C CNN
	1    2380 7240
	1    0    0    -1  
$EndComp
$Comp
L Device:D_Schottky D1
U 1 1 5DB795C3
P 1120 2160
F 0 "D1" H 1020 2040 50  0000 L CNN
F 1 "SS34" H 1150 2040 50  0000 L CNN
F 2 "Diode_SMD:D_SMA" H 1120 2160 50  0001 C CNN
F 3 "http://www.chinesechip.com/files/2015-06/8b5aa353-e559-4708-bf71-5dbd56a0a342.pdf" H 1120 2160 50  0001 C CNN
	1    1120 2160
	-1   0    0    1   
$EndComp
$Comp
L Device:Polyfuse_Small F1
U 1 1 5DB84C75
P 9710 4090
F 0 "F1" V 9505 4090 50  0000 C CNN
F 1 "Polyfuse_Small" V 9596 4090 50  0000 C CNN
F 2 "Fuse:Fuse_1206_3216Metric" H 9760 3890 50  0001 L CNN
F 3 "~" H 9710 4090 50  0001 C CNN
	1    9710 4090
	0    1    1    0   
$EndComp
Wire Wire Line
	9280 4090 9610 4090
Wire Wire Line
	9810 4090 10100 4090
Wire Wire Line
	10500 4090 10500 4000
$Comp
L Device:C C5
U 1 1 5DB91792
P 2820 7240
F 0 "C5" H 2935 7286 50  0000 L CNN
F 1 "100nF" H 2935 7195 50  0000 L CNN
F 2 "Capacitor_SMD:C_0805_2012Metric" H 2858 7090 50  0001 C CNN
F 3 "~" H 2820 7240 50  0001 C CNN
	1    2820 7240
	1    0    0    -1  
$EndComp
Wire Notes Line
	490  6580 3290 6580
Wire Notes Line
	3310 6020 3310 7790
Wire Wire Line
	960  7390 1390 7390
Connection ~ 1390 7390
Wire Wire Line
	1390 7390 1880 7390
Connection ~ 1880 7390
Wire Wire Line
	1880 7390 2380 7390
Connection ~ 2380 7390
Wire Wire Line
	2380 7390 2820 7390
$Comp
L Device:D_Schottky D7
U 1 1 5DBDDD28
P 10250 4090
F 0 "D7" H 10110 4200 50  0000 L CNN
F 1 "SS34" H 10260 4200 50  0000 L CNN
F 2 "Diode_SMD:D_SMA" H 10250 4090 50  0001 C CNN
F 3 "http://www.chinesechip.com/files/2015-06/8b5aa353-e559-4708-bf71-5dbd56a0a342.pdf" H 10250 4090 50  0001 C CNN
	1    10250 4090
	-1   0    0    1   
$EndComp
Wire Wire Line
	10500 4090 10400 4090
Wire Wire Line
	2180 2160 2050 2160
Connection ~ 2180 2160
Wire Wire Line
	2180 2160 2760 2160
Wire Wire Line
	2180 2160 2190 2160
Wire Wire Line
	1590 2460 2180 2460
Connection ~ 2180 2460
Wire Wire Line
	2180 2460 2760 2460
Text Label 8490 2740 2    50   ~ 0
hall_analog
Wire Wire Line
	5090 3520 4740 3520
Text Label 4740 3520 2    50   ~ 0
hall_analog
Wire Wire Line
	6290 3320 6420 3320
Wire Wire Line
	6290 3820 6430 3820
$Comp
L Device:R R2
U 1 1 5DE1F52A
P 1540 6060
F 0 "R2" V 1450 5980 50  0000 C CNN
F 1 "10k" V 1450 6150 50  0000 C CNN
F 2 "Resistor_SMD:R_0805_2012Metric" V 1470 6060 50  0001 C CNN
F 3 "~" H 1540 6060 50  0001 C CNN
	1    1540 6060
	1    0    0    -1  
$EndComp
$Comp
L Switch:SW_Push SW2
U 1 1 5DE2210A
P 2110 6030
F 0 "SW2" H 2110 5845 50  0000 C CNN
F 1 "Start" H 2110 5936 50  0000 C CNN
F 2 "Button_Switch_SMD:SW_SPST_SKQG_WithStem" H 2110 6230 50  0001 C CNN
F 3 "~" H 2110 6230 50  0001 C CNN
	1    2110 6030
	-1   0    0    1   
$EndComp
Wire Wire Line
	1540 5910 1540 5830
$Comp
L power:GND #PWR04
U 1 1 5DE3E930
P 1540 6210
F 0 "#PWR04" H 1540 5960 50  0001 C CNN
F 1 "GND" H 1545 6037 50  0000 C CNN
F 2 "" H 1540 6210 50  0001 C CNN
F 3 "" H 1540 6210 50  0001 C CNN
	1    1540 6210
	1    0    0    -1  
$EndComp
Wire Wire Line
	1540 5830 1750 5830
Wire Wire Line
	1750 5830 1750 6030
Wire Wire Line
	1750 6030 1890 6030
$Comp
L Connector_Generic:Conn_01x02 J3
U 1 1 5DD6C22B
P 3150 4130
F 0 "J3" V 3022 4210 50  0000 L CNN
F 1 "Motor" V 3113 4210 50  0000 L CNN
F 2 "Connector_JST:JST_XH_B2B-XH-A_1x02_P2.50mm_Vertical" H 3150 4130 50  0001 C CNN
F 3 "~" H 3150 4130 50  0001 C CNN
	1    3150 4130
	1    0    0    -1  
$EndComp
$Comp
L power:GND #PWR03
U 1 1 5DD65C1F
P 1290 5090
F 0 "#PWR03" H 1290 4840 50  0001 C CNN
F 1 "GND" H 1295 4917 50  0000 C CNN
F 2 "" H 1290 5090 50  0001 C CNN
F 3 "" H 1290 5090 50  0001 C CNN
	1    1290 5090
	1    0    0    -1  
$EndComp
Wire Notes Line
	470  3800 3310 3800
Text Label 970  4890 2    50   ~ 0
PWM_Control
Text Notes 670  3950 0    50   ~ 0
Motor Control
Wire Wire Line
	960  6950 1390 6950
Wire Wire Line
	2820 7090 2820 6950
Wire Wire Line
	2380 7090 2380 6950
Connection ~ 2380 6950
Wire Wire Line
	2380 6950 2820 6950
Wire Wire Line
	1880 7090 1880 6950
Connection ~ 1880 6950
Wire Wire Line
	1880 6950 2380 6950
Wire Wire Line
	1390 7090 1390 6950
Connection ~ 1390 6950
Wire Wire Line
	1390 6950 1880 6950
Wire Notes Line
	470  5450 3310 5450
Wire Notes Line
	3310 480  3310 6010
Wire Wire Line
	6290 4120 6430 4120
Text Label 6430 4120 0    50   ~ 0
Button_Start
Text Label 1670 5630 0    50   ~ 0
Button_Start
Wire Wire Line
	1540 5830 1540 5630
Wire Wire Line
	1540 5630 1670 5630
Connection ~ 1540 5830
Text Notes 670  5650 0    50   ~ 0
Start Button
$Comp
L Connector:Barrel_Jack_Switch J1
U 1 1 5DD72F72
P 1260 1080
F 0 "J1" H 1317 1405 50  0000 C CNN
F 1 "Barrel_Jack" H 1317 1314 50  0000 C CNN
F 2 "Connector_BarrelJack:BarrelJack_Horizontal" H 1310 1040 50  0001 C CNN
F 3 "~" H 1310 1040 50  0001 C CNN
	1    1260 1080
	1    0    0    -1  
$EndComp
Wire Wire Line
	1280 1030 1290 1030
Wire Wire Line
	1290 1220 1290 1230
$Comp
L Isolator:LTV-817S U1
U 1 1 5DD8C886
P 1660 4990
F 0 "U1" H 1660 5315 50  0000 C CNN
F 1 "PC817" H 1660 5224 50  0000 C CNN
F 2 "Package_DIP:DIP-4_W8.89mm_SMDSocket_LongPads" H 1460 4790 50  0001 L CIN
F 3 "http://www.soselectronic.cz/a_info/resource/d/pc817.pdf" H 1660 4990 50  0001 L CNN
	1    1660 4990
	1    0    0    -1  
$EndComp
$Comp
L Device:R R6
U 1 1 5DD96BA8
P 2280 4560
F 0 "R6" V 2190 4480 50  0000 C CNN
F 1 "100" V 2190 4650 50  0000 C CNN
F 2 "Resistor_SMD:R_0805_2012Metric" V 2210 4560 50  0001 C CNN
F 3 "~" H 2280 4560 50  0001 C CNN
	1    2280 4560
	0    1    1    0   
$EndComp
$Comp
L Device:R R1
U 1 1 5DD9A3B0
P 1180 4890
F 0 "R1" V 1090 4810 50  0000 C CNN
F 1 "2.2k" V 1090 4980 50  0000 C CNN
F 2 "Resistor_SMD:R_0805_2012Metric" V 1110 4890 50  0001 C CNN
F 3 "~" H 1180 4890 50  0001 C CNN
	1    1180 4890
	0    1    1    0   
$EndComp
$Comp
L Device:R R4
U 1 1 5DD9D933
P 2080 4360
F 0 "R4" V 1990 4280 50  0000 C CNN
F 1 "10k" V 1990 4450 50  0000 C CNN
F 2 "Resistor_SMD:R_0805_2012Metric" V 2010 4360 50  0001 C CNN
F 3 "~" H 2080 4360 50  0001 C CNN
	1    2080 4360
	1    0    0    -1  
$EndComp
Wire Wire Line
	970  4890 1030 4890
Wire Wire Line
	1290 5090 1360 5090
Wire Wire Line
	2080 4510 2080 4560
Wire Wire Line
	2080 4210 2080 4150
$Comp
L power:GND #PWR06
U 1 1 5DE1DCE0
P 2080 5150
F 0 "#PWR06" H 2080 4900 50  0001 C CNN
F 1 "GND" H 2085 4977 50  0000 C CNN
F 2 "" H 2080 5150 50  0001 C CNN
F 3 "" H 2080 5150 50  0001 C CNN
	1    2080 5150
	1    0    0    -1  
$EndComp
$Comp
L Transistor_FET:IRF7404 Q1
U 1 1 5DD8D8E4
P 2660 4560
F 0 "Q1" H 2866 4606 50  0000 L CNN
F 1 "IRF7404" H 2866 4515 50  0000 L CNN
F 2 "Package_SO:SOIC-8_3.9x4.9mm_P1.27mm" H 2860 4485 50  0001 L CIN
F 3 "http://www.infineon.com/dgdl/irf7404.pdf?fileId=5546d462533600a4015355fa2b5b1b9e" V 2660 4560 50  0001 L CNN
	1    2660 4560
	1    0    0    -1  
$EndComp
$Comp
L Device:R R5
U 1 1 5DD8CAED
P 2080 4740
F 0 "R5" V 1990 4660 50  0000 C CNN
F 1 "0" V 1990 4830 50  0000 C CNN
F 2 "Resistor_SMD:R_0805_2012Metric" V 2010 4740 50  0001 C CNN
F 3 "~" H 2080 4740 50  0001 C CNN
	1    2080 4740
	1    0    0    -1  
$EndComp
Wire Wire Line
	2080 4560 2080 4590
Wire Wire Line
	2130 4560 2080 4560
Wire Wire Line
	1360 4890 1330 4890
$Comp
L Device:D_Schottky D6
U 1 1 5DDE4912
P 3240 4490
F 0 "D6" V 3194 4569 50  0000 L CNN
F 1 "SS34" V 3285 4569 50  0000 L CNN
F 2 "Diode_SMD:D_SMA" H 3240 4490 50  0001 C CNN
F 3 "http://www.chinesechip.com/files/2015-06/8b5aa353-e559-4708-bf71-5dbd56a0a342.pdf" H 3240 4490 50  0001 C CNN
	1    3240 4490
	0    -1   -1   0   
$EndComp
$Comp
L power:GND #PWR011
U 1 1 5DDF2BCB
P 2760 4030
F 0 "#PWR011" H 2760 3780 50  0001 C CNN
F 1 "GND" H 2765 3857 50  0000 C CNN
F 2 "" H 2760 4030 50  0001 C CNN
F 3 "" H 2760 4030 50  0001 C CNN
	1    2760 4030
	-1   0    0    1   
$EndComp
Wire Wire Line
	2950 4130 2760 4130
Wire Wire Line
	2950 4230 2760 4230
Wire Wire Line
	2760 4230 2760 4340
Connection ~ 2760 4340
Wire Wire Line
	2760 4340 2760 4360
Wire Wire Line
	2430 4560 2460 4560
Wire Wire Line
	3240 4340 2760 4340
Wire Wire Line
	2760 4760 2760 4800
Wire Wire Line
	3240 4640 3240 4800
Wire Wire Line
	3240 4800 3180 4800
Connection ~ 2760 4800
Connection ~ 2080 4560
Wire Wire Line
	1960 4890 2080 4890
Wire Wire Line
	1960 5090 2080 5090
Wire Wire Line
	2080 5090 2080 5150
$Sheet
S 8650 1390 510  740 
U 5DE868BC
F0 "USB_Serial" 50
F1 "USB_Serial.sch" 50
F2 "RST" I L 8650 1520 50 
F3 "GPIO0" I L 8650 1630 50 
F4 "TXD" I L 8650 1760 50 
F5 "RXD" I L 8650 1880 50 
$EndSheet
Wire Wire Line
	8650 1520 8430 1520
Wire Wire Line
	8650 1630 8430 1630
Wire Wire Line
	8650 1760 8430 1760
Wire Wire Line
	8650 1880 8430 1880
Text Label 4900 3120 2    50   ~ 0
RST
Wire Wire Line
	4900 3120 5090 3120
Text Label 8430 1520 2    50   ~ 0
RST
Text Label 8430 1630 2    50   ~ 0
GPIO0
Text Label 8430 1880 2    50   ~ 0
TX_ESP
$Comp
L Device:D_Schottky D4
U 1 1 5DDDCC01
P 2520 4190
F 0 "D4" V 2474 4269 50  0000 L CNN
F 1 "SS34" V 2565 4269 50  0000 L CNN
F 2 "Diode_SMD:D_SMA" H 2520 4190 50  0001 C CNN
F 3 "http://www.chinesechip.com/files/2015-06/8b5aa353-e559-4708-bf71-5dbd56a0a342.pdf" H 2520 4190 50  0001 C CNN
	1    2520 4190
	0    -1   -1   0   
$EndComp
Wire Wire Line
	2760 4340 2520 4340
Wire Wire Line
	2760 4030 2760 4130
Wire Wire Line
	2760 4030 2520 4030
Wire Wire Line
	2520 4030 2520 4040
Connection ~ 2760 4030
Text Label 6430 3720 0    50   ~ 0
PWM_Control
$Comp
L Device:D_Schottky D5
U 1 1 5DE45281
P 2610 5040
F 0 "D5" V 2564 5119 50  0000 L CNN
F 1 "SS34" V 2655 5119 50  0000 L CNN
F 2 "Diode_SMD:D_SMA" H 2610 5040 50  0001 C CNN
F 3 "http://www.chinesechip.com/files/2015-06/8b5aa353-e559-4708-bf71-5dbd56a0a342.pdf" H 2610 5040 50  0001 C CNN
	1    2610 5040
	0    1    1    0   
$EndComp
Text Label 2610 5290 0    50   ~ 0
Vin
Wire Wire Line
	2610 5190 2610 5290
Wire Wire Line
	2770 4800 2760 4800
Text Label 2420 4800 0    50   ~ 0
Vfet
Text Label 2080 4150 1    50   ~ 0
Vfet
Wire Wire Line
	3180 4900 3180 4800
Connection ~ 3180 4800
Wire Wire Line
	3180 4800 2760 4800
$Comp
L power:GND #PWR012
U 1 1 5DE7D054
P 3180 5200
F 0 "#PWR012" H 3180 4950 50  0001 C CNN
F 1 "GND" H 3185 5027 50  0000 C CNN
F 2 "" H 3180 5200 50  0001 C CNN
F 3 "" H 3180 5200 50  0001 C CNN
	1    3180 5200
	1    0    0    -1  
$EndComp
Wire Wire Line
	2610 4890 2610 4800
Wire Wire Line
	2420 4800 2610 4800
Connection ~ 2610 4800
Wire Wire Line
	2610 4800 2760 4800
Text Label 1470 3380 2    50   ~ 0
PWM_Control
Wire Wire Line
	1530 3380 1470 3380
Wire Wire Line
	1560 980  1710 980 
Wire Wire Line
	1560 1080 1630 1080
Wire Wire Line
	1630 1080 1630 1180
$Comp
L power:GND #PWR05
U 1 1 5DEF077A
P 1870 1180
F 0 "#PWR05" H 1870 930 50  0001 C CNN
F 1 "GND" H 1875 1007 50  0000 C CNN
F 2 "" H 1870 1180 50  0001 C CNN
F 3 "" H 1870 1180 50  0001 C CNN
	1    1870 1180
	1    0    0    -1  
$EndComp
Wire Wire Line
	1560 1180 1630 1180
Connection ~ 1630 1180
Wire Wire Line
	1630 1180 1870 1180
Text Label 910  2160 2    50   ~ 0
Vin
Wire Wire Line
	970  2160 910  2160
$Comp
L Switch:SW_DPDT_x2 SW1
U 1 1 5DEE3729
P 1910 980
F 0 "SW1" H 1910 1173 50  0000 C CNN
F 1 "SW_DPST_x2" H 1910 1124 50  0001 C CNN
F 2 "Button_Switch_THT:SW_CuK_OS102011MA1QN1_SPDT_Angled" H 1910 980 50  0001 C CNN
F 3 "~" H 1910 980 50  0001 C CNN
	1    1910 980 
	1    0    0    -1  
$EndComp
Text Label 2240 880  0    50   ~ 0
Vin
Wire Wire Line
	2240 880  2110 880 
NoConn ~ 2110 1080
$Comp
L Mechanical:MountingHole_Pad H4
U 1 1 5DB8A321
P 9700 6100
F 0 "H4" H 9800 6146 50  0000 L CNN
F 1 "MountingHole" H 9800 6055 50  0000 L CNN
F 2 "MountingHole:MountingHole_2.2mm_M2_Pad_Via" H 9700 6100 50  0001 C CNN
F 3 "~" H 9700 6100 50  0001 C CNN
	1    9700 6100
	1    0    0    -1  
$EndComp
$Comp
L Mechanical:MountingHole_Pad H2
U 1 1 5DB8C499
P 9000 6100
F 0 "H2" H 9100 6146 50  0000 L CNN
F 1 "MountingHole" H 9100 6055 50  0000 L CNN
F 2 "MountingHole:MountingHole_2.2mm_M2_Pad_Via" H 9000 6100 50  0001 C CNN
F 3 "~" H 9000 6100 50  0001 C CNN
	1    9000 6100
	1    0    0    -1  
$EndComp
$Comp
L Mechanical:MountingHole_Pad H3
U 1 1 5DB890E5
P 9700 5770
F 0 "H3" H 9800 5816 50  0000 L CNN
F 1 "MountingHole" H 9800 5725 50  0000 L CNN
F 2 "MountingHole:MountingHole_2.2mm_M2_Pad_Via" H 9700 5770 50  0001 C CNN
F 3 "~" H 9700 5770 50  0001 C CNN
	1    9700 5770
	1    0    0    -1  
$EndComp
$Comp
L Mechanical:MountingHole_Pad H1
U 1 1 5DB8E528
P 8980 5770
F 0 "H1" H 9080 5816 50  0000 L CNN
F 1 "MountingHole" H 9080 5725 50  0000 L CNN
F 2 "MountingHole:MountingHole_2.2mm_M2_Pad_Via" H 8980 5770 50  0001 C CNN
F 3 "~" H 8980 5770 50  0001 C CNN
	1    8980 5770
	1    0    0    -1  
$EndComp
NoConn ~ 5090 3920
Text Label 6430 3620 0    50   ~ 0
SCL_LOW
$Sheet
S 8590 2610 510  740 
U 5DA62A26
F0 "hall_sensors" 50
F1 "hall_sensor_connector.sch" 50
F2 "analog_out" I L 8590 2740 50 
$EndSheet
Wire Wire Line
	8590 2740 8490 2740
$Comp
L power:+5V #PWR031
U 1 1 5DE737D6
P 10500 4000
F 0 "#PWR031" H 10500 3850 50  0001 C CNN
F 1 "+5V" H 10515 4173 50  0000 C CNN
F 2 "" H 10500 4000 50  0001 C CNN
F 3 "" H 10500 4000 50  0001 C CNN
	1    10500 4000
	1    0    0    -1  
$EndComp
$Comp
L power:+5V #PWR023
U 1 1 5DE77959
P 6060 5720
F 0 "#PWR023" H 6060 5570 50  0001 C CNN
F 1 "+5V" V 6075 5848 50  0000 L CNN
F 2 "" H 6060 5720 50  0001 C CNN
F 3 "" H 6060 5720 50  0001 C CNN
	1    6060 5720
	0    -1   -1   0   
$EndComp
Text Label 4450 5820 2    50   ~ 0
SDA_LOW
Text Label 4450 6650 2    50   ~ 0
SCL_LOW
$Comp
L Transistor_FET:2N7002 Q3
U 1 1 5DEB78A0
P 5240 6550
F 0 "Q3" V 5490 6410 50  0000 C CNN
F 1 "2N7002" V 5490 6630 50  0000 C CNN
F 2 "Package_TO_SOT_SMD:SOT-23" H 5440 6475 50  0001 L CIN
F 3 "https://www.fairchildsemi.com/datasheets/2N/2N7002.pdf" H 5240 6550 50  0001 L CNN
	1    5240 6550
	0    1    1    0   
$EndComp
$Comp
L Transistor_FET:2N7002 Q2
U 1 1 5DEBB549
P 5240 5920
F 0 "Q2" V 5470 5740 50  0000 C CNN
F 1 "2N7002" V 5470 5990 50  0000 C CNN
F 2 "Package_TO_SOT_SMD:SOT-23" H 5440 5845 50  0001 L CIN
F 3 "https://www.fairchildsemi.com/datasheets/2N/2N7002.pdf" H 5240 5920 50  0001 L CNN
	1    5240 5920
	0    1    -1   0   
$EndComp
$Comp
L power:GND #PWR024
U 1 1 5DE77208
P 6070 5420
F 0 "#PWR024" H 6070 5170 50  0001 C CNN
F 1 "GND" H 6075 5247 50  0000 C CNN
F 2 "" H 6070 5420 50  0001 C CNN
F 3 "" H 6070 5420 50  0001 C CNN
	1    6070 5420
	0    1    1    0   
$EndComp
$Comp
L Connector_Generic:Conn_01x04 J5
U 1 1 5DE71942
P 6900 5830
F 0 "J5" H 6860 6030 50  0000 L CNN
F 1 "Connector_I2C_LCD" H 6730 5490 50  0000 L CNN
F 2 "Connector_JST:JST_XH_B4B-XH-A_1x04_P2.50mm_Vertical" H 6900 5830 50  0001 C CNN
F 3 "~" H 6900 5830 50  0001 C CNN
	1    6900 5830
	1    0    0    -1  
$EndComp
$Comp
L Device:R R7
U 1 1 5DEEFC27
P 4650 6030
F 0 "R7" V 4560 5950 50  0000 C CNN
F 1 "3k3" V 4560 6120 50  0000 C CNN
F 2 "Resistor_SMD:R_0805_2012Metric" V 4580 6030 50  0001 C CNN
F 3 "~" H 4650 6030 50  0001 C CNN
	1    4650 6030
	-1   0    0    1   
$EndComp
$Comp
L Device:R R8
U 1 1 5DEF5588
P 4650 6430
F 0 "R8" V 4560 6350 50  0000 C CNN
F 1 "3k3" V 4560 6520 50  0000 C CNN
F 2 "Resistor_SMD:R_0805_2012Metric" V 4580 6430 50  0001 C CNN
F 3 "~" H 4650 6430 50  0001 C CNN
	1    4650 6430
	-1   0    0    1   
$EndComp
$Comp
L power:+3.3V #PWR07
U 1 1 5DE44238
P 2420 6030
F 0 "#PWR07" H 2420 5880 50  0001 C CNN
F 1 "+3.3V" H 2435 6203 50  0000 C CNN
F 2 "" H 2420 6030 50  0001 C CNN
F 3 "" H 2420 6030 50  0001 C CNN
	1    2420 6030
	0    1    1    0   
$EndComp
$Comp
L power:+3.3V #PWR013
U 1 1 5DF122B3
P 4480 6230
F 0 "#PWR013" H 4480 6080 50  0001 C CNN
F 1 "+3.3V" V 4480 6490 50  0000 C CNN
F 2 "" H 4480 6230 50  0001 C CNN
F 3 "" H 4480 6230 50  0001 C CNN
	1    4480 6230
	0    -1   -1   0   
$EndComp
Wire Wire Line
	5240 6230 5240 6120
Wire Wire Line
	5240 6230 5240 6350
Connection ~ 5240 6230
Wire Wire Line
	4480 6230 4650 6230
Wire Wire Line
	4650 6230 4650 6180
Wire Wire Line
	4450 6650 4650 6650
Wire Wire Line
	4450 5820 4650 5820
Connection ~ 4650 6230
Wire Wire Line
	4650 6230 5240 6230
Wire Wire Line
	4650 5880 4650 5820
Connection ~ 4650 5820
Wire Wire Line
	4650 5820 5040 5820
Wire Wire Line
	4650 6280 4650 6240
Wire Wire Line
	4650 6580 4650 6650
Connection ~ 4650 6650
Wire Wire Line
	4650 6650 5040 6650
$Comp
L Device:R R13
U 1 1 5DF53E1F
P 5830 6430
F 0 "R13" V 5740 6350 50  0000 C CNN
F 1 "4k7" V 5740 6520 50  0000 C CNN
F 2 "Resistor_SMD:R_0805_2012Metric" V 5760 6430 50  0001 C CNN
F 3 "~" H 5830 6430 50  0001 C CNN
	1    5830 6430
	1    0    0    -1  
$EndComp
$Comp
L Device:R R12
U 1 1 5DF53E25
P 5830 6030
F 0 "R12" V 5740 5950 50  0000 C CNN
F 1 "4k7" V 5740 6120 50  0000 C CNN
F 2 "Resistor_SMD:R_0805_2012Metric" V 5760 6030 50  0001 C CNN
F 3 "~" H 5830 6030 50  0001 C CNN
	1    5830 6030
	1    0    0    -1  
$EndComp
Wire Wire Line
	5830 6180 5830 6230
$Comp
L power:+5V #PWR020
U 1 1 5DF74C6F
P 5830 6230
F 0 "#PWR020" H 5830 6080 50  0001 C CNN
F 1 "+5V" V 5830 6360 50  0000 L CNN
F 2 "" H 5830 6230 50  0001 C CNN
F 3 "" H 5830 6230 50  0001 C CNN
	1    5830 6230
	0    1    1    0   
$EndComp
Connection ~ 5830 6230
Wire Wire Line
	5830 6230 5830 6280
Wire Wire Line
	5440 6650 5830 6650
Wire Wire Line
	5830 6650 5830 6580
Wire Wire Line
	5830 6650 6570 6650
Wire Wire Line
	6570 6650 6570 6030
Wire Wire Line
	6570 6030 6700 6030
Connection ~ 5830 6650
Wire Wire Line
	5440 5820 5830 5820
Wire Wire Line
	5830 5820 5830 5880
Wire Wire Line
	5830 5820 6060 5820
Wire Wire Line
	6060 5820 6060 5930
Wire Wire Line
	6060 5930 6700 5930
Connection ~ 5830 5820
Text Label 6130 6650 0    50   ~ 0
SCL_HIGH
Text Label 6170 5930 0    50   ~ 0
SDA_HIGH
Text Label 6430 3520 0    50   ~ 0
SDA_LOW
Wire Wire Line
	6630 5720 6630 5830
Wire Wire Line
	6630 5830 6700 5830
$Comp
L Connector_Generic:Conn_01x04 J4
U 1 1 5DFE02ED
P 5120 7330
F 0 "J4" H 5080 7530 50  0000 L CNN
F 1 "Connector_I2C" H 5270 7330 50  0000 L CNN
F 2 "Connector_JST:JST_XH_B4B-XH-A_1x04_P2.50mm_Vertical" H 5120 7330 50  0001 C CNN
F 3 "~" H 5120 7330 50  0001 C CNN
	1    5120 7330
	1    0    0    -1  
$EndComp
Text Label 4720 7430 2    50   ~ 0
SDA_LOW
Text Label 4720 7530 2    50   ~ 0
SCL_LOW
$Comp
L power:+3.3V #PWR016
U 1 1 5DFE16CB
P 4750 7330
F 0 "#PWR016" H 4750 7180 50  0001 C CNN
F 1 "+3.3V" V 4750 7590 50  0000 C CNN
F 2 "" H 4750 7330 50  0001 C CNN
F 3 "" H 4750 7330 50  0001 C CNN
	1    4750 7330
	0    -1   -1   0   
$EndComp
Wire Wire Line
	4750 7330 4920 7330
Wire Wire Line
	4720 7530 4920 7530
Wire Wire Line
	4720 7430 4920 7430
$Comp
L power:GND #PWR015
U 1 1 5DFFB342
P 4740 7140
F 0 "#PWR015" H 4740 6890 50  0001 C CNN
F 1 "GND" H 4745 6967 50  0000 C CNN
F 2 "" H 4740 7140 50  0001 C CNN
F 3 "" H 4740 7140 50  0001 C CNN
	1    4740 7140
	0    1    1    0   
$EndComp
Wire Wire Line
	4740 7140 4830 7140
Wire Wire Line
	4830 7140 4830 7230
Wire Wire Line
	4830 7230 4920 7230
Wire Wire Line
	6140 5720 6630 5720
Wire Wire Line
	6060 5720 6140 5720
Connection ~ 6140 5720
$Comp
L Device:C C7
U 1 1 5E0134ED
P 6140 5570
F 0 "C7" H 6255 5616 50  0000 L CNN
F 1 "100nF" H 6255 5525 50  0000 L CNN
F 2 "Capacitor_SMD:C_0805_2012Metric" H 6178 5420 50  0001 C CNN
F 3 "~" H 6140 5570 50  0001 C CNN
	1    6140 5570
	1    0    0    -1  
$EndComp
Wire Wire Line
	6070 5420 6140 5420
Wire Wire Line
	6140 5420 6700 5420
Wire Wire Line
	6700 5420 6700 5730
Connection ~ 6140 5420
Connection ~ 1890 6030
Wire Wire Line
	1890 6030 1910 6030
$Comp
L Connector_Generic:Conn_01x02 J2
U 1 1 5E088A12
P 2070 6450
F 0 "J2" V 2030 6190 50  0000 L CNN
F 1 "Switch_ext" V 2110 5880 50  0000 L CNN
F 2 "Connector_JST:JST_XH_B2B-XH-A_1x02_P2.50mm_Vertical" H 2070 6450 50  0001 C CNN
F 3 "~" H 2070 6450 50  0001 C CNN
	1    2070 6450
	0    -1   1    0   
$EndComp
Wire Wire Line
	2070 6250 1890 6250
Wire Wire Line
	1890 6030 1890 6250
Wire Wire Line
	2310 6030 2310 6250
Wire Wire Line
	2420 6030 2310 6030
Connection ~ 2310 6030
Wire Wire Line
	2170 6250 2310 6250
Text Label 8430 1760 2    50   ~ 0
RX_ESP
Text Label 6430 3420 0    50   ~ 0
RX_ESP
$Comp
L Device:Buzzer BZ1
U 1 1 5DE995BD
P 6070 1320
F 0 "BZ1" H 6222 1349 50  0000 L CNN
F 1 "Buzzer" H 6222 1258 50  0000 L CNN
F 2 "Buzzer_Beeper:Buzzer_12x9.5RM7.6" V 6045 1420 50  0001 C CNN
F 3 "~" V 6045 1420 50  0001 C CNN
	1    6070 1320
	1    0    0    -1  
$EndComp
$Comp
L Transistor_FET:2N7002 Q4
U 1 1 5DE9BD9C
P 5870 1720
F 0 "Q4" V 6100 1540 50  0000 C CNN
F 1 "2N7002" V 6100 1790 50  0000 C CNN
F 2 "Package_TO_SOT_SMD:SOT-23" H 6070 1645 50  0001 L CIN
F 3 "https://www.fairchildsemi.com/datasheets/2N/2N7002.pdf" H 5870 1720 50  0001 L CNN
	1    5870 1720
	1    0    0    -1  
$EndComp
Wire Wire Line
	6290 3920 6430 3920
$Comp
L Device:R R14
U 1 1 5DE9B6AA
P 5970 980
F 0 "R14" V 5880 900 50  0000 C CNN
F 1 "100" V 5880 1070 50  0000 C CNN
F 2 "Resistor_SMD:R_0805_2012Metric" V 5900 980 50  0001 C CNN
F 3 "~" H 5970 980 50  0001 C CNN
	1    5970 980 
	1    0    0    -1  
$EndComp
Text Label 6430 3920 0    50   ~ 0
Buzzer
Text Label 5190 1720 2    50   ~ 0
Buzzer
$Comp
L Device:R R11
U 1 1 5DEB9401
P 5440 1720
F 0 "R11" V 5350 1640 50  0000 C CNN
F 1 "100" V 5350 1810 50  0000 C CNN
F 2 "Resistor_SMD:R_0805_2012Metric" V 5370 1720 50  0001 C CNN
F 3 "~" H 5440 1720 50  0001 C CNN
	1    5440 1720
	0    1    1    0   
$EndComp
Wire Wire Line
	5290 1720 5270 1720
Wire Wire Line
	5590 1720 5670 1720
Wire Wire Line
	5970 1520 5970 1420
Wire Wire Line
	5970 1130 5970 1220
$Comp
L power:+5V #PWR021
U 1 1 5DEDAB83
P 5970 800
F 0 "#PWR021" H 5970 650 50  0001 C CNN
F 1 "+5V" H 5985 973 50  0000 C CNN
F 2 "" H 5970 800 50  0001 C CNN
F 3 "" H 5970 800 50  0001 C CNN
	1    5970 800 
	1    0    0    -1  
$EndComp
Wire Wire Line
	5970 830  5970 800 
Wire Wire Line
	5970 2020 5970 1920
Text Label 6420 3320 0    50   ~ 0
GPIO2
Text Label 6430 3820 0    50   ~ 0
GPIO13
$Comp
L Connector_Generic:Conn_01x06 J6
U 1 1 5DF3A08F
P 7990 4960
F 0 "J6" H 8070 4952 50  0000 L CNN
F 1 "Conn_01x06" H 8070 4861 50  0000 L CNN
F 2 "Connector_PinHeader_2.54mm:PinHeader_1x06_P2.54mm_Vertical" H 7990 4960 50  0001 C CNN
F 3 "~" H 7990 4960 50  0001 C CNN
	1    7990 4960
	1    0    0    -1  
$EndComp
Text Label 7730 4960 2    50   ~ 0
GPIO2
Text Label 7760 5060 2    50   ~ 0
GPIO13
$Comp
L power:+3.3V #PWR026
U 1 1 5DF3B429
P 7710 5260
F 0 "#PWR026" H 7710 5110 50  0001 C CNN
F 1 "+3.3V" V 7710 5520 50  0000 C CNN
F 2 "" H 7710 5260 50  0001 C CNN
F 3 "" H 7710 5260 50  0001 C CNN
	1    7710 5260
	0    -1   -1   0   
$EndComp
$Comp
L power:+5V #PWR028
U 1 1 5DF3BC3E
P 7730 4760
F 0 "#PWR028" H 7730 4610 50  0001 C CNN
F 1 "+5V" V 7740 4980 50  0000 C CNN
F 2 "" H 7730 4760 50  0001 C CNN
F 3 "" H 7730 4760 50  0001 C CNN
	1    7730 4760
	0    -1   -1   0   
$EndComp
Wire Wire Line
	7730 4760 7790 4760
Wire Wire Line
	7730 4860 7790 4860
Wire Wire Line
	7760 5060 7790 5060
Wire Wire Line
	7720 5160 7790 5160
Wire Wire Line
	7710 5260 7790 5260
Wire Wire Line
	6290 4020 7100 4020
Text Label 7100 3870 0    50   ~ 0
GPIO15
Wire Wire Line
	7100 3870 7100 4020
Connection ~ 7100 4020
Wire Wire Line
	7100 4020 7190 4020
Text Label 7730 4860 2    50   ~ 0
GPIO15
$Comp
L power:GND #PWR027
U 1 1 5E005ED7
P 7720 5160
F 0 "#PWR027" H 7720 4910 50  0001 C CNN
F 1 "GND" V 7720 4950 50  0000 C CNN
F 2 "" H 7720 5160 50  0001 C CNN
F 3 "" H 7720 5160 50  0001 C CNN
	1    7720 5160
	0    1    1    0   
$EndComp
Wire Wire Line
	7730 4960 7790 4960
$Comp
L Device:R R10
U 1 1 5E2B5C5C
P 5270 2020
F 0 "R10" V 5180 1940 50  0000 C CNN
F 1 "4k7" V 5180 2110 50  0000 C CNN
F 2 "Resistor_SMD:R_0805_2012Metric" V 5200 2020 50  0001 C CNN
F 3 "~" H 5270 2020 50  0001 C CNN
	1    5270 2020
	-1   0    0    1   
$EndComp
Wire Wire Line
	5270 1870 5270 1720
Connection ~ 5270 1720
Wire Wire Line
	5270 1720 5190 1720
$Comp
L Device:CP C6
U 1 1 5DE66E3D
P 3180 5050
AR Path="/5DE66E3D" Ref="C6"  Part="1" 
AR Path="/5DA7086F/5DE66E3D" Ref="C?"  Part="1" 
F 0 "C6" H 3210 5150 50  0000 L CNN
F 1 "1000uF" H 2890 5210 50  0000 L CNN
F 2 "Capacitor_THT:CP_Radial_D8.0mm_P5.00mm" H 3180 5050 50  0001 C CNN
F 3 "~" H 3180 5050 50  0001 C CNN
	1    3180 5050
	1    0    0    -1  
$EndComp
$Comp
L Device:CP C3
U 1 1 5DB1EC3E
P 2180 2310
AR Path="/5DB1EC3E" Ref="C3"  Part="1" 
AR Path="/5DA7086F/5DB1EC3E" Ref="C?"  Part="1" 
F 0 "C3" H 2358 2356 50  0000 L CNN
F 1 "1000uF" H 2358 2265 50  0000 L CNN
F 2 "Capacitor_THT:CP_Radial_D8.0mm_P5.00mm" H 2180 2310 50  0001 C CNN
F 3 "~" H 2180 2310 50  0001 C CNN
	1    2180 2310
	1    0    0    -1  
$EndComp
$Comp
L power:GND #PWR017
U 1 1 5E2BF8C4
P 5270 2220
F 0 "#PWR017" H 5270 1970 50  0001 C CNN
F 1 "GND" H 5275 2047 50  0000 C CNN
F 2 "" H 5270 2220 50  0001 C CNN
F 3 "" H 5270 2220 50  0001 C CNN
	1    5270 2220
	1    0    0    -1  
$EndComp
Wire Wire Line
	5270 2220 5270 2170
$EndSCHEMATC
