EESchema Schematic File Version 4
LIBS:esp_hall_sensor_step_down_v3-cache
EELAYER 30 0
EELAYER END
$Descr A4 11693 8268
encoding utf-8
Sheet 4 4
Title ""
Date ""
Rev ""
Comp ""
Comment1 ""
Comment2 ""
Comment3 ""
Comment4 ""
$EndDescr
Wire Wire Line
	2040 3620 2040 3520
Wire Wire Line
	2040 4320 2040 4470
$Comp
L Connector_Generic:Conn_01x03 J18
U 1 1 5DD28156
P 5250 3020
AR Path="/5DA62A26/5DD28156" Ref="J18"  Part="1" 
AR Path="/5DE868BC/5DD28156" Ref="J?"  Part="1" 
F 0 "J18" H 5168 2695 50  0000 C CNN
F 1 "sensor 5" H 5168 2786 50  0000 C CNN
F 2 "Connector_JST:JST_XH_B3B-XH-A_1x03_P2.50mm_Vertical" H 5250 3020 50  0001 C CNN
F 3 "~" H 5250 3020 50  0001 C CNN
	1    5250 3020
	-1   0    0    1   
$EndComp
$Comp
L Connector_Generic:Conn_01x03 J16
U 1 1 5DD34741
P 4500 3020
AR Path="/5DA62A26/5DD34741" Ref="J16"  Part="1" 
AR Path="/5DE868BC/5DD34741" Ref="J?"  Part="1" 
F 0 "J16" H 4418 2695 50  0000 C CNN
F 1 "sensor 4" H 4418 2786 50  0000 C CNN
F 2 "Connector_JST:JST_XH_B3B-XH-A_1x03_P2.50mm_Vertical" H 4500 3020 50  0001 C CNN
F 3 "~" H 4500 3020 50  0001 C CNN
	1    4500 3020
	-1   0    0    1   
$EndComp
$Comp
L Connector_Generic:Conn_01x03 J13
U 1 1 5DD359D4
P 3750 3020
AR Path="/5DA62A26/5DD359D4" Ref="J13"  Part="1" 
AR Path="/5DE868BC/5DD359D4" Ref="J?"  Part="1" 
F 0 "J13" H 3668 2695 50  0000 C CNN
F 1 "sensor 3" H 3668 2786 50  0000 C CNN
F 2 "Connector_JST:JST_XH_B3B-XH-A_1x03_P2.50mm_Vertical" H 3750 3020 50  0001 C CNN
F 3 "~" H 3750 3020 50  0001 C CNN
	1    3750 3020
	-1   0    0    1   
$EndComp
$Comp
L Connector_Generic:Conn_01x03 J11
U 1 1 5DD365DF
P 3000 3020
AR Path="/5DA62A26/5DD365DF" Ref="J11"  Part="1" 
AR Path="/5DE868BC/5DD365DF" Ref="J?"  Part="1" 
F 0 "J11" H 2918 2695 50  0000 C CNN
F 1 "sensor 2" H 2918 2786 50  0000 C CNN
F 2 "Connector_JST:JST_XH_B3B-XH-A_1x03_P2.50mm_Vertical" H 3000 3020 50  0001 C CNN
F 3 "~" H 3000 3020 50  0001 C CNN
	1    3000 3020
	-1   0    0    1   
$EndComp
$Comp
L Connector_Generic:Conn_01x03 J9
U 1 1 5DD3723C
P 2250 3020
AR Path="/5DA62A26/5DD3723C" Ref="J9"  Part="1" 
AR Path="/5DE868BC/5DD3723C" Ref="J?"  Part="1" 
F 0 "J9" H 2168 2695 50  0000 C CNN
F 1 "sensor1" H 2168 2786 50  0000 C CNN
F 2 "Connector_JST:JST_XH_B3B-XH-A_1x03_P2.50mm_Vertical" H 2250 3020 50  0001 C CNN
F 3 "~" H 2250 3020 50  0001 C CNN
	1    2250 3020
	-1   0    0    1   
$EndComp
Wire Wire Line
	2450 2270 2450 2920
Wire Wire Line
	2450 2270 3300 2270
Wire Wire Line
	3200 2920 3300 2920
Wire Wire Line
	3300 2920 3300 2270
Connection ~ 3300 2270
Wire Wire Line
	3300 2270 4050 2270
Wire Wire Line
	3950 2920 4050 2920
Wire Wire Line
	4050 2920 4050 2270
Connection ~ 4050 2270
Wire Wire Line
	4050 2270 4800 2270
Wire Wire Line
	4700 2920 4800 2920
Wire Wire Line
	4800 2920 4800 2270
Connection ~ 4800 2270
Wire Wire Line
	4800 2270 5550 2270
Wire Wire Line
	5450 2920 5550 2920
Wire Wire Line
	5550 2920 5550 2270
Wire Wire Line
	3300 3520 4050 3520
Connection ~ 3300 3520
Wire Wire Line
	4050 3520 4800 3520
Connection ~ 4050 3520
Wire Wire Line
	4800 3520 5550 3520
Connection ~ 4800 3520
$Comp
L Connector_Generic:Conn_01x03 J19
U 1 1 5DD7AB29
P 6000 3020
AR Path="/5DA62A26/5DD7AB29" Ref="J19"  Part="1" 
AR Path="/5DE868BC/5DD7AB29" Ref="J?"  Part="1" 
F 0 "J19" H 5918 2695 50  0000 C CNN
F 1 "sensor 6" H 5918 2786 50  0000 C CNN
F 2 "Connector_JST:JST_XH_B3B-XH-A_1x03_P2.50mm_Vertical" H 6000 3020 50  0001 C CNN
F 3 "~" H 6000 3020 50  0001 C CNN
	1    6000 3020
	-1   0    0    1   
$EndComp
Wire Wire Line
	6200 2920 6300 2920
Wire Wire Line
	6300 2920 6300 2270
$Comp
L Connector_Generic:Conn_01x03 J20
U 1 1 5DD7BE6A
P 6750 3020
AR Path="/5DA62A26/5DD7BE6A" Ref="J20"  Part="1" 
AR Path="/5DE868BC/5DD7BE6A" Ref="J?"  Part="1" 
F 0 "J20" H 6668 2695 50  0000 C CNN
F 1 "sensor 7" H 6668 2786 50  0000 C CNN
F 2 "Connector_JST:JST_XH_B3B-XH-A_1x03_P2.50mm_Vertical" H 6750 3020 50  0001 C CNN
F 3 "~" H 6750 3020 50  0001 C CNN
	1    6750 3020
	-1   0    0    1   
$EndComp
Wire Wire Line
	6950 2920 7050 2920
Wire Wire Line
	7050 2920 7050 2270
Wire Wire Line
	6300 3520 5550 3520
Connection ~ 5550 3520
Wire Wire Line
	7050 3520 6300 3520
Connection ~ 6300 3520
Wire Wire Line
	6300 2270 5550 2270
Connection ~ 5550 2270
Wire Wire Line
	7700 2920 7800 2920
Wire Wire Line
	7800 2920 7800 2270
$Comp
L Connector_Generic:Conn_01x03 J22
U 1 1 5DD89A21
P 8250 3020
AR Path="/5DA62A26/5DD89A21" Ref="J22"  Part="1" 
AR Path="/5DE868BC/5DD89A21" Ref="J?"  Part="1" 
F 0 "J22" H 8168 2695 50  0000 C CNN
F 1 "sensor 9" H 8168 2786 50  0000 C CNN
F 2 "Connector_JST:JST_XH_B3B-XH-A_1x03_P2.50mm_Vertical" H 8250 3020 50  0001 C CNN
F 3 "~" H 8250 3020 50  0001 C CNN
	1    8250 3020
	-1   0    0    1   
$EndComp
Wire Wire Line
	8450 2920 8550 2920
Wire Wire Line
	8550 2920 8550 2270
$Comp
L Connector_Generic:Conn_01x03 J23
U 1 1 5DD8B5EE
P 9000 3020
AR Path="/5DA62A26/5DD8B5EE" Ref="J23"  Part="1" 
AR Path="/5DE868BC/5DD8B5EE" Ref="J?"  Part="1" 
F 0 "J23" H 8918 2695 50  0000 C CNN
F 1 "sensor 10" H 8918 2786 50  0000 C CNN
F 2 "Connector_JST:JST_XH_B3B-XH-A_1x03_P2.50mm_Vertical" H 9000 3020 50  0001 C CNN
F 3 "~" H 9000 3020 50  0001 C CNN
	1    9000 3020
	-1   0    0    1   
$EndComp
Wire Wire Line
	9200 2920 9300 2920
Wire Wire Line
	9300 2920 9300 2270
$Comp
L Connector_Generic:Conn_01x03 J24
U 1 1 5DD8D64A
P 9750 3020
AR Path="/5DA62A26/5DD8D64A" Ref="J24"  Part="1" 
AR Path="/5DE868BC/5DD8D64A" Ref="J?"  Part="1" 
F 0 "J24" H 9668 2695 50  0000 C CNN
F 1 "sensor 11" H 9668 2786 50  0000 C CNN
F 2 "Connector_JST:JST_XH_B3B-XH-A_1x03_P2.50mm_Vertical" H 9750 3020 50  0001 C CNN
F 3 "~" H 9750 3020 50  0001 C CNN
	1    9750 3020
	-1   0    0    1   
$EndComp
Wire Wire Line
	9950 2920 10050 2920
Wire Wire Line
	10050 2920 10050 2270
$Comp
L Connector_Generic:Conn_01x03 J25
U 1 1 5DD8F957
P 10500 3020
AR Path="/5DA62A26/5DD8F957" Ref="J25"  Part="1" 
AR Path="/5DE868BC/5DD8F957" Ref="J?"  Part="1" 
F 0 "J25" H 10418 2695 50  0000 C CNN
F 1 "sensor 12" H 10418 2786 50  0000 C CNN
F 2 "Connector_JST:JST_XH_B3B-XH-A_1x03_P2.50mm_Vertical" H 10500 3020 50  0001 C CNN
F 3 "~" H 10500 3020 50  0001 C CNN
	1    10500 3020
	-1   0    0    1   
$EndComp
Wire Wire Line
	10700 2920 10800 2920
Wire Wire Line
	10800 2920 10800 2270
Wire Wire Line
	10800 3520 10050 3520
Connection ~ 7050 3520
Connection ~ 7800 3520
Wire Wire Line
	7800 3520 7050 3520
Connection ~ 8550 3520
Wire Wire Line
	8550 3520 7800 3520
Connection ~ 9300 3520
Wire Wire Line
	9300 3520 8550 3520
Connection ~ 10050 3520
Wire Wire Line
	10050 3520 9300 3520
Wire Wire Line
	10800 2270 10050 2270
Connection ~ 6300 2270
Connection ~ 7050 2270
Wire Wire Line
	7050 2270 6300 2270
Connection ~ 7800 2270
Wire Wire Line
	7800 2270 7050 2270
Connection ~ 8550 2270
Wire Wire Line
	8550 2270 7800 2270
Connection ~ 9300 2270
Wire Wire Line
	9300 2270 8550 2270
Connection ~ 10050 2270
Wire Wire Line
	10050 2270 9300 2270
$Comp
L Connector_Generic:Conn_01x03 J10
U 1 1 5DDBE1FC
P 2250 5920
AR Path="/5DA62A26/5DDBE1FC" Ref="J10"  Part="1" 
AR Path="/5DE868BC/5DDBE1FC" Ref="J?"  Part="1" 
F 0 "J10" H 2168 5595 50  0000 C CNN
F 1 "sensor 13" H 2168 5686 50  0000 C CNN
F 2 "Connector_JST:JST_XH_B3B-XH-A_1x03_P2.50mm_Vertical" H 2250 5920 50  0001 C CNN
F 3 "~" H 2250 5920 50  0001 C CNN
	1    2250 5920
	-1   0    0    1   
$EndComp
Wire Wire Line
	2450 5820 2550 5820
Wire Wire Line
	2550 5820 2550 5170
Wire Wire Line
	2550 6420 2550 6360
$Comp
L Device:R R33
U 1 1 5DDC16EA
P 3300 6220
AR Path="/5DA62A26/5DDC16EA" Ref="R33"  Part="1" 
AR Path="/5DE868BC/5DDC16EA" Ref="R?"  Part="1" 
F 0 "R33" H 3370 6266 50  0000 L CNN
F 1 "R 1.2k" H 3370 6175 50  0000 L CNN
F 2 "Resistor_SMD:R_0805_2012Metric" V 3230 6220 50  0001 C CNN
F 3 "~" H 3300 6220 50  0001 C CNN
	1    3300 6220
	1    0    0    -1  
$EndComp
$Comp
L Connector_Generic:Conn_01x03 J12
U 1 1 5DDC16F0
P 3000 5920
AR Path="/5DA62A26/5DDC16F0" Ref="J12"  Part="1" 
AR Path="/5DE868BC/5DDC16F0" Ref="J?"  Part="1" 
F 0 "J12" H 2918 5595 50  0000 C CNN
F 1 "sensor 14" H 2918 5686 50  0000 C CNN
F 2 "Connector_JST:JST_XH_B3B-XH-A_1x03_P2.50mm_Vertical" H 3000 5920 50  0001 C CNN
F 3 "~" H 3000 5920 50  0001 C CNN
	1    3000 5920
	-1   0    0    1   
$EndComp
Wire Wire Line
	3200 5820 3300 5820
Wire Wire Line
	3300 5820 3300 5170
Wire Wire Line
	3300 6420 3300 6370
Wire Wire Line
	2550 5170 3300 5170
Wire Wire Line
	3300 6420 2550 6420
$Comp
L Device:R R35
U 1 1 5DDC53C9
P 4050 6220
AR Path="/5DA62A26/5DDC53C9" Ref="R35"  Part="1" 
AR Path="/5DE868BC/5DDC53C9" Ref="R?"  Part="1" 
F 0 "R35" H 4120 6266 50  0000 L CNN
F 1 "R 1.5k" H 4120 6175 50  0000 L CNN
F 2 "Resistor_SMD:R_0805_2012Metric" V 3980 6220 50  0001 C CNN
F 3 "~" H 4050 6220 50  0001 C CNN
	1    4050 6220
	1    0    0    -1  
$EndComp
$Comp
L Connector_Generic:Conn_01x03 J14
U 1 1 5DDC53CF
P 3750 5920
AR Path="/5DA62A26/5DDC53CF" Ref="J14"  Part="1" 
AR Path="/5DE868BC/5DDC53CF" Ref="J?"  Part="1" 
F 0 "J14" H 3668 5595 50  0000 C CNN
F 1 "sensor 15" H 3668 5686 50  0000 C CNN
F 2 "Connector_JST:JST_XH_B3B-XH-A_1x03_P2.50mm_Vertical" H 3750 5920 50  0001 C CNN
F 3 "~" H 3750 5920 50  0001 C CNN
	1    3750 5920
	-1   0    0    1   
$EndComp
Wire Wire Line
	3950 5820 4050 5820
Wire Wire Line
	4050 5820 4050 5170
Wire Wire Line
	4050 6420 4050 6370
Wire Wire Line
	3300 5170 4050 5170
Wire Wire Line
	4050 6420 3300 6420
$Comp
L Device:R R37
U 1 1 5DDC9CB9
P 4800 6230
AR Path="/5DA62A26/5DDC9CB9" Ref="R37"  Part="1" 
AR Path="/5DE868BC/5DDC9CB9" Ref="R?"  Part="1" 
F 0 "R37" H 4870 6276 50  0000 L CNN
F 1 "R 1.8k" H 4870 6185 50  0000 L CNN
F 2 "Resistor_SMD:R_0805_2012Metric" V 4730 6230 50  0001 C CNN
F 3 "~" H 4800 6230 50  0001 C CNN
	1    4800 6230
	1    0    0    -1  
$EndComp
$Comp
L Connector_Generic:Conn_01x03 J17
U 1 1 5DDC9CBF
P 4500 5920
AR Path="/5DA62A26/5DDC9CBF" Ref="J17"  Part="1" 
AR Path="/5DE868BC/5DDC9CBF" Ref="J?"  Part="1" 
F 0 "J17" H 4418 5595 50  0000 C CNN
F 1 "sensor 16" H 4418 5686 50  0000 C CNN
F 2 "Connector_JST:JST_XH_B3B-XH-A_1x03_P2.50mm_Vertical" H 4500 5920 50  0001 C CNN
F 3 "~" H 4500 5920 50  0001 C CNN
	1    4500 5920
	-1   0    0    1   
$EndComp
Wire Wire Line
	4700 5820 4800 5820
Wire Wire Line
	4800 5820 4800 5170
Wire Wire Line
	4800 6420 4800 6380
Wire Wire Line
	4050 5170 4800 5170
Wire Wire Line
	4800 6420 4050 6420
Connection ~ 2550 5170
Connection ~ 2550 6420
Connection ~ 3300 5170
Connection ~ 3300 6420
Connection ~ 4050 5170
Connection ~ 4050 6420
Wire Wire Line
	10800 2270 11140 2270
Connection ~ 10800 2270
Wire Wire Line
	10700 4470 10700 4570
Wire Wire Line
	10700 4570 1350 4570
Wire Wire Line
	1350 4570 1350 7370
Wire Wire Line
	2100 5020 2100 5170
Wire Wire Line
	11140 2270 11140 5020
Wire Wire Line
	2100 5170 2550 5170
Wire Wire Line
	10800 3520 11050 3520
Wire Wire Line
	11050 3520 11050 4770
Wire Wire Line
	11050 4770 1750 4770
Wire Wire Line
	1750 4770 1750 6420
Connection ~ 10800 3520
Wire Wire Line
	1750 6420 2550 6420
Text HLabel 1020 3970 0    50   Input ~ 0
analog_out
$Comp
L power:GND #PWR041
U 1 1 5DD78DD7
P 810 4470
AR Path="/5DA62A26/5DD78DD7" Ref="#PWR041"  Part="1" 
AR Path="/5DE868BC/5DD78DD7" Ref="#PWR?"  Part="1" 
F 0 "#PWR041" H 810 4220 50  0001 C CNN
F 1 "GND" V 815 4342 50  0000 R CNN
F 2 "" H 810 4470 50  0001 C CNN
F 3 "" H 810 4470 50  0001 C CNN
	1    810  4470
	0    1    1    0   
$EndComp
$Comp
L power:VCC #PWR042
U 1 1 5DD7F24C
P 950 940
AR Path="/5DA62A26/5DD7F24C" Ref="#PWR042"  Part="1" 
AR Path="/5DE868BC/5DD7F24C" Ref="#PWR?"  Part="1" 
F 0 "#PWR042" H 950 790 50  0001 C CNN
F 1 "VCC" V 968 1067 50  0000 L CNN
F 2 "" H 950 940 50  0001 C CNN
F 3 "" H 950 940 50  0001 C CNN
	1    950  940 
	0    -1   -1   0   
$EndComp
$Comp
L Device:CP C24
U 1 1 5DDE382F
P 5390 6170
AR Path="/5DA62A26/5DDE382F" Ref="C24"  Part="1" 
AR Path="/5DE868BC/5DDE382F" Ref="C?"  Part="1" 
F 0 "C24" H 5508 6216 50  0000 L CNN
F 1 "CP 100uF" H 5508 6125 50  0000 L CNN
F 2 "Capacitor_THT:CP_Radial_D10.0mm_P5.00mm" H 5428 6020 50  0001 C CNN
F 3 "~" H 5390 6170 50  0001 C CNN
	1    5390 6170
	1    0    0    -1  
$EndComp
Wire Wire Line
	2040 3920 2040 3970
Connection ~ 2040 3970
Wire Wire Line
	2040 3970 2040 4020
Wire Wire Line
	11140 5020 2100 5020
Connection ~ 2040 4470
$Comp
L Device:R R26
U 1 1 5DE031F3
P 1450 3970
AR Path="/5DA62A26/5DE031F3" Ref="R26"  Part="1" 
AR Path="/5DE868BC/5DE031F3" Ref="R?"  Part="1" 
F 0 "R26" H 1520 4016 50  0000 L CNN
F 1 "R 15k" H 1520 3925 50  0000 L CNN
F 2 "Resistor_SMD:R_0805_2012Metric" V 1380 3970 50  0001 C CNN
F 3 "~" H 1450 3970 50  0001 C CNN
	1    1450 3970
	0    -1   -1   0   
$EndComp
$Comp
L Device:C C20
U 1 1 5DE09D60
P 1160 4220
AR Path="/5DA62A26/5DE09D60" Ref="C20"  Part="1" 
AR Path="/5DE868BC/5DE09D60" Ref="C?"  Part="1" 
F 0 "C20" H 900 4260 50  0000 L CNN
F 1 "C 100nF" H 740 4170 50  0000 L CNN
F 2 "Capacitor_SMD:C_0805_2012Metric" H 1198 4070 50  0001 C CNN
F 3 "~" H 1160 4220 50  0001 C CNN
	1    1160 4220
	1    0    0    -1  
$EndComp
Wire Wire Line
	1160 3970 1160 4070
Wire Wire Line
	1160 3970 1300 3970
Wire Wire Line
	1160 4370 1160 4470
Wire Wire Line
	1600 3970 2040 3970
Wire Wire Line
	810  4470 1160 4470
Connection ~ 1160 4470
Wire Wire Line
	1160 3970 1020 3970
Connection ~ 1160 3970
$Comp
L Device:R R29
U 1 1 5DCE2160
P 2040 4170
AR Path="/5DA62A26/5DCE2160" Ref="R29"  Part="1" 
AR Path="/5DE868BC/5DCE2160" Ref="R?"  Part="1" 
F 0 "R29" H 2110 4216 50  0000 L CNN
F 1 "R 560" H 2110 4125 50  0000 L CNN
F 2 "Resistor_SMD:R_0805_2012Metric" V 1970 4170 50  0001 C CNN
F 3 "~" H 2040 4170 50  0001 C CNN
	1    2040 4170
	1    0    0    -1  
$EndComp
$Comp
L Device:R R28
U 1 1 5DCE021B
P 2040 3770
AR Path="/5DA62A26/5DCE021B" Ref="R28"  Part="1" 
AR Path="/5DE868BC/5DCE021B" Ref="R?"  Part="1" 
F 0 "R28" H 2110 3816 50  0000 L CNN
F 1 "R 4k7" H 2110 3725 50  0000 L CNN
F 2 "Resistor_SMD:R_0805_2012Metric" V 1970 3770 50  0001 C CNN
F 3 "~" H 2040 3770 50  0001 C CNN
	1    2040 3770
	1    0    0    -1  
$EndComp
Wire Wire Line
	2550 3520 3300 3520
$Comp
L Regulator_Linear:KA78M05_TO252 U6
U 1 1 5DE734CF
P 1990 940
F 0 "U6" H 1990 1182 50  0000 C CNN
F 1 "KA78M09_TO252" H 1990 1091 50  0000 C CNN
F 2 "Package_TO_SOT_SMD:TO-252-2" H 1990 1165 50  0001 C CIN
F 3 "http://www.fairchildsemi.com/ds/LM/LM78M05.pdf" H 1990 890 50  0001 C CNN
	1    1990 940 
	1    0    0    -1  
$EndComp
$Comp
L Device:C C21
U 1 1 5DE7D130
P 1630 1220
AR Path="/5DA62A26/5DE7D130" Ref="C21"  Part="1" 
AR Path="/5DE868BC/5DE7D130" Ref="C?"  Part="1" 
F 0 "C21" H 1745 1266 50  0000 L CNN
F 1 "C 100nF" H 1745 1175 50  0000 L CNN
F 2 "Capacitor_SMD:C_0805_2012Metric" H 1668 1070 50  0001 C CNN
F 3 "~" H 1630 1220 50  0001 C CNN
	1    1630 1220
	-1   0    0    1   
$EndComp
$Comp
L Device:C C22
U 1 1 5DE7E19B
P 2390 1190
AR Path="/5DA62A26/5DE7E19B" Ref="C22"  Part="1" 
AR Path="/5DE868BC/5DE7E19B" Ref="C?"  Part="1" 
F 0 "C22" H 2505 1236 50  0000 L CNN
F 1 "C 100nF" H 2505 1145 50  0000 L CNN
F 2 "Capacitor_SMD:C_0805_2012Metric" H 2428 1040 50  0001 C CNN
F 3 "~" H 2390 1190 50  0001 C CNN
	1    2390 1190
	1    0    0    -1  
$EndComp
$Comp
L Device:C C23
U 1 1 5DE7E95E
P 2990 1190
AR Path="/5DA62A26/5DE7E95E" Ref="C23"  Part="1" 
AR Path="/5DE868BC/5DE7E95E" Ref="C?"  Part="1" 
F 0 "C23" H 3105 1236 50  0000 L CNN
F 1 "C 10uF" H 3105 1145 50  0000 L CNN
F 2 "Capacitor_SMD:C_1206_3216Metric" H 3028 1040 50  0001 C CNN
F 3 "~" H 2990 1190 50  0001 C CNN
	1    2990 1190
	1    0    0    -1  
$EndComp
Wire Wire Line
	950  940  1630 940 
Wire Wire Line
	1630 1070 1630 940 
Connection ~ 1630 940 
Wire Wire Line
	1630 940  1690 940 
Wire Wire Line
	1630 1480 1990 1480
Wire Wire Line
	1990 1480 1990 1240
Wire Wire Line
	1990 1480 2390 1480
Wire Wire Line
	2390 1480 2390 1340
Connection ~ 1990 1480
Wire Wire Line
	2290 940  2390 940 
Wire Wire Line
	2390 940  2390 1040
Wire Wire Line
	2390 940  2990 940 
Wire Wire Line
	2990 940  2990 1040
Connection ~ 2390 940 
Wire Wire Line
	2390 1480 2990 1480
Wire Wire Line
	2990 1480 2990 1340
Connection ~ 2390 1480
Connection ~ 2990 940 
Wire Wire Line
	1630 1370 1630 1480
$Comp
L power:GND #PWR043
U 1 1 5DED015B
P 1630 1520
AR Path="/5DA62A26/5DED015B" Ref="#PWR043"  Part="1" 
AR Path="/5DE868BC/5DED015B" Ref="#PWR?"  Part="1" 
F 0 "#PWR043" H 1630 1270 50  0001 C CNN
F 1 "GND" H 1540 1470 50  0000 R CNN
F 2 "" H 1630 1520 50  0001 C CNN
F 3 "" H 1630 1520 50  0001 C CNN
	1    1630 1520
	1    0    0    -1  
$EndComp
Wire Wire Line
	1630 1520 1630 1480
Connection ~ 1630 1480
Wire Wire Line
	1160 4470 2040 4470
Wire Wire Line
	4800 5170 5390 5170
Wire Wire Line
	5390 5170 5390 6020
Connection ~ 4800 5170
Wire Wire Line
	5390 7370 5390 6320
Wire Wire Line
	2450 2270 2240 2270
Connection ~ 2450 2270
Text Label 1610 3520 2    50   ~ 0
V_analog
Wire Wire Line
	2040 3520 2000 3520
Connection ~ 2040 3520
Wire Wire Line
	2040 3520 2550 3520
Connection ~ 2550 3520
Text Label 3840 1040 2    50   ~ 0
V_analog
$Comp
L Connector_Generic:Conn_02x03_Odd_Even J15
U 1 1 5E02B970
P 4110 1040
F 0 "J15" H 4160 1357 50  0000 C CNN
F 1 "Conn_01x03" H 4160 1266 50  0000 C CNN
F 2 "Connector_PinHeader_2.54mm:PinHeader_2x03_P2.54mm_Vertical" H 4110 1040 50  0001 C CNN
F 3 "~" H 4110 1040 50  0001 C CNN
	1    4110 1040
	1    0    0    -1  
$EndComp
Wire Wire Line
	2990 940  3870 940 
Wire Wire Line
	3910 1040 3840 1040
$Comp
L power:VCC #PWR044
U 1 1 5E06CF44
P 3830 1140
AR Path="/5DA62A26/5E06CF44" Ref="#PWR044"  Part="1" 
AR Path="/5DE868BC/5E06CF44" Ref="#PWR?"  Part="1" 
F 0 "#PWR044" H 3830 990 50  0001 C CNN
F 1 "VCC" V 3848 1267 50  0000 L CNN
F 2 "" H 3830 1140 50  0001 C CNN
F 3 "" H 3830 1140 50  0001 C CNN
	1    3830 1140
	0    -1   -1   0   
$EndComp
Wire Wire Line
	3830 1140 3870 1140
Wire Wire Line
	3870 1140 3870 1280
Wire Wire Line
	3870 1280 4530 1280
Wire Wire Line
	4530 1280 4530 1140
Wire Wire Line
	4530 1140 4410 1140
Connection ~ 3870 1140
Wire Wire Line
	3870 1140 3910 1140
Wire Wire Line
	4410 940  4540 940 
Wire Wire Line
	4540 940  4540 630 
Wire Wire Line
	4540 630  3870 630 
Wire Wire Line
	3870 630  3870 940 
Connection ~ 3870 940 
Wire Wire Line
	3870 940  3910 940 
Text Label 2240 2270 2    50   ~ 0
V_sens
Text Label 4460 1040 0    50   ~ 0
V_sens
Wire Wire Line
	4460 1040 4410 1040
$Comp
L Device:R R27
U 1 1 5E0CDAFA
P 1850 3520
AR Path="/5DA62A26/5E0CDAFA" Ref="R27"  Part="1" 
AR Path="/5DE868BC/5E0CDAFA" Ref="R?"  Part="1" 
F 0 "R27" V 1930 3580 50  0000 L CNN
F 1 "R 5k" V 1930 3300 50  0000 L CNN
F 2 "Resistor_SMD:R_0805_2012Metric" V 1780 3520 50  0001 C CNN
F 3 "~" H 1850 3520 50  0001 C CNN
	1    1850 3520
	0    -1   -1   0   
$EndComp
Wire Wire Line
	1700 3520 1610 3520
$Comp
L Connector_Generic:Conn_01x03 J21
U 1 1 5DD883CB
P 7500 3020
AR Path="/5DA62A26/5DD883CB" Ref="J21"  Part="1" 
AR Path="/5DE868BC/5DD883CB" Ref="J?"  Part="1" 
F 0 "J21" H 7418 2695 50  0000 C CNN
F 1 "sensor 8" H 7418 2786 50  0000 C CNN
F 2 "Connector_JST:JST_XH_B3B-XH-A_1x03_P2.50mm_Vertical" H 7500 3020 50  0001 C CNN
F 3 "~" H 7500 3020 50  0001 C CNN
	1    7500 3020
	-1   0    0    1   
$EndComp
Wire Wire Line
	10800 3520 10800 3480
$Comp
L Device:R R45
U 1 1 5DD8F951
P 10800 3330
AR Path="/5DA62A26/5DD8F951" Ref="R45"  Part="1" 
AR Path="/5DE868BC/5DD8F951" Ref="R?"  Part="1" 
F 0 "R45" H 10870 3376 50  0000 L CNN
F 1 "R 820" H 10870 3285 50  0000 L CNN
F 2 "Resistor_SMD:R_0805_2012Metric" V 10730 3330 50  0001 C CNN
F 3 "~" H 10800 3330 50  0001 C CNN
	1    10800 3330
	1    0    0    -1  
$EndComp
Wire Wire Line
	10050 3520 10050 3480
$Comp
L Device:R R44
U 1 1 5DD8D644
P 10050 3330
AR Path="/5DA62A26/5DD8D644" Ref="R44"  Part="1" 
AR Path="/5DE868BC/5DD8D644" Ref="R?"  Part="1" 
F 0 "R44" H 10120 3376 50  0000 L CNN
F 1 "R 680" H 10120 3285 50  0000 L CNN
F 2 "Resistor_SMD:R_0805_2012Metric" V 9980 3330 50  0001 C CNN
F 3 "~" H 10050 3330 50  0001 C CNN
	1    10050 3330
	1    0    0    -1  
$EndComp
Wire Wire Line
	9300 3520 9300 3480
$Comp
L Device:R R43
U 1 1 5DD8B5E8
P 9300 3330
AR Path="/5DA62A26/5DD8B5E8" Ref="R43"  Part="1" 
AR Path="/5DE868BC/5DD8B5E8" Ref="R?"  Part="1" 
F 0 "R43" H 9370 3376 50  0000 L CNN
F 1 "R 560" H 9370 3285 50  0000 L CNN
F 2 "Resistor_SMD:R_0805_2012Metric" V 9230 3330 50  0001 C CNN
F 3 "~" H 9300 3330 50  0001 C CNN
	1    9300 3330
	1    0    0    -1  
$EndComp
Wire Wire Line
	8550 3520 8550 3480
$Comp
L Device:R R42
U 1 1 5DD89A1B
P 8550 3330
AR Path="/5DA62A26/5DD89A1B" Ref="R42"  Part="1" 
AR Path="/5DE868BC/5DD89A1B" Ref="R?"  Part="1" 
F 0 "R42" H 8620 3376 50  0000 L CNN
F 1 "R 470" H 8620 3285 50  0000 L CNN
F 2 "Resistor_SMD:R_0805_2012Metric" V 8480 3330 50  0001 C CNN
F 3 "~" H 8550 3330 50  0001 C CNN
	1    8550 3330
	1    0    0    -1  
$EndComp
Wire Wire Line
	7800 3520 7800 3470
$Comp
L Device:R R41
U 1 1 5DD883C5
P 7800 3320
AR Path="/5DA62A26/5DD883C5" Ref="R41"  Part="1" 
AR Path="/5DE868BC/5DD883C5" Ref="R?"  Part="1" 
F 0 "R41" H 7870 3366 50  0000 L CNN
F 1 "R 390" H 7870 3275 50  0000 L CNN
F 2 "Resistor_SMD:R_0805_2012Metric" V 7730 3320 50  0001 C CNN
F 3 "~" H 7800 3320 50  0001 C CNN
	1    7800 3320
	1    0    0    -1  
$EndComp
Wire Wire Line
	7050 3520 7050 3490
$Comp
L Device:R R40
U 1 1 5DD7BE64
P 7050 3340
AR Path="/5DA62A26/5DD7BE64" Ref="R40"  Part="1" 
AR Path="/5DE868BC/5DD7BE64" Ref="R?"  Part="1" 
F 0 "R40" H 7120 3386 50  0000 L CNN
F 1 "R 330" H 7120 3295 50  0000 L CNN
F 2 "Resistor_SMD:R_0805_2012Metric" V 6980 3340 50  0001 C CNN
F 3 "~" H 7050 3340 50  0001 C CNN
	1    7050 3340
	1    0    0    -1  
$EndComp
Wire Wire Line
	6300 3520 6300 3480
$Comp
L Device:R R39
U 1 1 5DD7AB23
P 6300 3330
AR Path="/5DA62A26/5DD7AB23" Ref="R39"  Part="1" 
AR Path="/5DE868BC/5DD7AB23" Ref="R?"  Part="1" 
F 0 "R39" H 6370 3376 50  0000 L CNN
F 1 "R 270" H 6370 3285 50  0000 L CNN
F 2 "Resistor_SMD:R_0805_2012Metric" V 6230 3330 50  0001 C CNN
F 3 "~" H 6300 3330 50  0001 C CNN
	1    6300 3330
	1    0    0    -1  
$EndComp
Wire Wire Line
	5550 3520 5550 3480
Wire Wire Line
	4800 3520 4800 3480
$Comp
L Device:R R36
U 1 1 5DC9C548
P 4800 3330
AR Path="/5DA62A26/5DC9C548" Ref="R36"  Part="1" 
AR Path="/5DE868BC/5DC9C548" Ref="R?"  Part="1" 
F 0 "R36" H 4870 3376 50  0000 L CNN
F 1 "R 180" H 4870 3285 50  0000 L CNN
F 2 "Resistor_SMD:R_0805_2012Metric" V 4730 3330 50  0001 C CNN
F 3 "~" H 4800 3330 50  0001 C CNN
	1    4800 3330
	1    0    0    -1  
$EndComp
Wire Wire Line
	4050 3520 4050 3470
$Comp
L Device:R R34
U 1 1 5DC9C40D
P 4050 3320
AR Path="/5DA62A26/5DC9C40D" Ref="R34"  Part="1" 
AR Path="/5DE868BC/5DC9C40D" Ref="R?"  Part="1" 
F 0 "R34" H 4120 3366 50  0000 L CNN
F 1 "R 150" H 4120 3275 50  0000 L CNN
F 2 "Resistor_SMD:R_0805_2012Metric" V 3980 3320 50  0001 C CNN
F 3 "~" H 4050 3320 50  0001 C CNN
	1    4050 3320
	1    0    0    -1  
$EndComp
Wire Wire Line
	3300 3520 3290 3480
$Comp
L Device:R R32
U 1 1 5DC9C240
P 3290 3330
AR Path="/5DA62A26/5DC9C240" Ref="R32"  Part="1" 
AR Path="/5DE868BC/5DC9C240" Ref="R?"  Part="1" 
F 0 "R32" H 3360 3376 50  0000 L CNN
F 1 "R 120" H 3360 3285 50  0000 L CNN
F 2 "Resistor_SMD:R_0805_2012Metric" V 3220 3330 50  0001 C CNN
F 3 "~" H 3290 3330 50  0001 C CNN
	1    3290 3330
	1    0    0    -1  
$EndComp
Wire Wire Line
	2550 3470 2550 3520
$Comp
L Device:R R30
U 1 1 5DBADCB0
P 2550 3320
AR Path="/5DA62A26/5DBADCB0" Ref="R30"  Part="1" 
AR Path="/5DE868BC/5DBADCB0" Ref="R?"  Part="1" 
F 0 "R30" H 2620 3366 50  0000 L CNN
F 1 "R 100" H 2620 3275 50  0000 L CNN
F 2 "Resistor_SMD:R_0805_2012Metric" V 2480 3320 50  0001 C CNN
F 3 "~" H 2550 3320 50  0001 C CNN
	1    2550 3320
	1    0    0    -1  
$EndComp
Wire Wire Line
	2550 3170 2550 3120
Wire Wire Line
	2550 3120 2450 3120
Wire Wire Line
	2450 3020 2870 3020
Wire Wire Line
	2870 3020 2870 4470
Wire Wire Line
	2040 4470 2870 4470
Connection ~ 2870 4470
Wire Wire Line
	2870 4470 3610 4470
$Comp
L Device:R R38
U 1 1 5DC9C705
P 5550 3330
AR Path="/5DA62A26/5DC9C705" Ref="R38"  Part="1" 
AR Path="/5DE868BC/5DC9C705" Ref="R?"  Part="1" 
F 0 "R38" H 5620 3376 50  0000 L CNN
F 1 "R 220" H 5620 3285 50  0000 L CNN
F 2 "Resistor_SMD:R_0805_2012Metric" V 5480 3330 50  0001 C CNN
F 3 "~" H 5550 3330 50  0001 C CNN
	1    5550 3330
	1    0    0    -1  
$EndComp
Wire Wire Line
	3200 3120 3290 3120
Wire Wire Line
	3290 3120 3290 3180
Wire Wire Line
	3950 3120 4050 3120
Wire Wire Line
	4050 3120 4050 3170
Wire Wire Line
	4700 3120 4800 3120
Wire Wire Line
	4800 3120 4800 3180
Wire Wire Line
	5450 3120 5550 3120
Wire Wire Line
	5550 3120 5550 3180
Wire Wire Line
	6200 3120 6300 3120
Wire Wire Line
	6300 3120 6300 3180
Wire Wire Line
	6950 3120 7050 3120
Wire Wire Line
	7050 3120 7050 3190
Wire Wire Line
	7700 3120 7800 3120
Wire Wire Line
	7800 3120 7800 3170
Wire Wire Line
	8450 3120 8550 3120
Wire Wire Line
	8550 3120 8550 3180
Wire Wire Line
	9200 3120 9300 3120
Wire Wire Line
	9300 3120 9300 3180
Wire Wire Line
	9950 3120 10050 3120
Wire Wire Line
	10050 3120 10050 3180
Wire Wire Line
	10700 3120 10800 3120
Wire Wire Line
	10800 3120 10800 3180
Wire Wire Line
	3200 3020 3610 3020
Wire Wire Line
	3610 3020 3610 4470
Connection ~ 3610 4470
Wire Wire Line
	3610 4470 4380 4470
Wire Wire Line
	3950 3020 4380 3020
Wire Wire Line
	4380 3020 4380 4470
Connection ~ 4380 4470
Wire Wire Line
	4380 4470 5140 4470
Wire Wire Line
	4700 3020 5140 3020
Wire Wire Line
	5140 3020 5140 4470
Connection ~ 5140 4470
Wire Wire Line
	5140 4470 5900 4470
Wire Wire Line
	6200 3020 6640 3020
Wire Wire Line
	6640 3020 6640 4470
Connection ~ 6640 4470
Wire Wire Line
	6640 4470 7390 4470
Wire Wire Line
	6950 3020 7390 3020
Wire Wire Line
	7390 3020 7390 4470
Connection ~ 7390 4470
Wire Wire Line
	7390 4470 8140 4470
Wire Wire Line
	7700 3020 8140 3020
Wire Wire Line
	8140 3020 8140 4470
Connection ~ 8140 4470
Wire Wire Line
	8140 4470 8890 4470
Wire Wire Line
	8450 3020 8890 3020
Wire Wire Line
	8890 3020 8890 4470
Connection ~ 8890 4470
Wire Wire Line
	8890 4470 9640 4470
Wire Wire Line
	9200 3020 9640 3020
Wire Wire Line
	9640 3020 9640 4470
Connection ~ 9640 4470
Wire Wire Line
	9640 4470 10390 4470
Wire Wire Line
	9950 3020 10390 3020
Wire Wire Line
	10390 3020 10390 4470
Connection ~ 10390 4470
Wire Wire Line
	10390 4470 10700 4470
Connection ~ 10700 4470
Wire Wire Line
	10700 3020 10700 4470
Wire Wire Line
	1350 7370 2870 7370
$Comp
L Device:R R31
U 1 1 5DDBE1F6
P 2550 6210
AR Path="/5DA62A26/5DDBE1F6" Ref="R31"  Part="1" 
AR Path="/5DE868BC/5DDBE1F6" Ref="R?"  Part="1" 
F 0 "R31" H 2620 6256 50  0000 L CNN
F 1 "R 1k" H 2620 6165 50  0000 L CNN
F 2 "Resistor_SMD:R_0805_2012Metric" V 2480 6210 50  0001 C CNN
F 3 "~" H 2550 6210 50  0001 C CNN
	1    2550 6210
	1    0    0    -1  
$EndComp
Wire Wire Line
	2550 6060 2550 6020
Wire Wire Line
	2550 6020 2450 6020
Wire Wire Line
	3200 6020 3300 6020
Wire Wire Line
	3300 6020 3300 6070
Wire Wire Line
	3950 6020 4050 6020
Wire Wire Line
	4050 6020 4050 6070
Wire Wire Line
	4700 6020 4800 6020
Wire Wire Line
	4800 6020 4800 6080
Wire Wire Line
	2450 5920 2870 5920
Wire Wire Line
	2870 5920 2870 7370
Connection ~ 2870 7370
Wire Wire Line
	2870 7370 3650 7370
Wire Wire Line
	3200 5920 3650 5920
Wire Wire Line
	3650 5920 3650 7370
Connection ~ 3650 7370
Wire Wire Line
	3650 7370 4380 7370
Wire Wire Line
	3950 5920 4380 5920
Wire Wire Line
	4380 5920 4380 7370
Connection ~ 4380 7370
Wire Wire Line
	4380 7370 5180 7370
Wire Wire Line
	4700 5920 5180 5920
Wire Wire Line
	5180 5920 5180 7370
Connection ~ 5180 7370
Wire Wire Line
	5180 7370 5390 7370
Wire Wire Line
	5450 3020 5900 3020
Wire Wire Line
	5900 3020 5900 4470
Connection ~ 5900 4470
Wire Wire Line
	5900 4470 6640 4470
$EndSCHEMATC
