EESchema Schematic File Version 4
LIBS:esp_hall_sensor_step_down_v3-cache
EELAYER 30 0
EELAYER END
$Descr A4 11693 8268
encoding utf-8
Sheet 3 4
Title ""
Date ""
Rev ""
Comp ""
Comment1 ""
Comment2 ""
Comment3 ""
Comment4 ""
$EndDescr
$Comp
L Device:Q_NPN_BEC Q5
U 1 1 5DA90BA7
P 1970 2690
F 0 "Q5" H 2161 2736 50  0000 L CNN
F 1 "Q_NPN_BEC" H 2161 2645 50  0000 L CNN
F 2 "Package_TO_SOT_SMD:SOT-23" H 2170 2790 50  0001 C CNN
F 3 "~" H 1970 2690 50  0001 C CNN
	1    1970 2690
	1    0    0    -1  
$EndComp
$Comp
L Device:Q_NPN_BEC Q6
U 1 1 5DA9373F
P 1970 3390
F 0 "Q6" H 2161 3344 50  0000 L CNN
F 1 "Q_NPN_BEC" H 2161 3435 50  0000 L CNN
F 2 "Package_TO_SOT_SMD:SOT-23" H 2170 3490 50  0001 C CNN
F 3 "~" H 1970 3390 50  0001 C CNN
	1    1970 3390
	1    0    0    1   
$EndComp
$Comp
L Device:R R22
U 1 1 5DA951F5
P 1360 2690
F 0 "R22" V 1270 2610 50  0000 C CNN
F 1 "12k" V 1270 2780 50  0000 C CNN
F 2 "Resistor_SMD:R_0805_2012Metric" V 1290 2690 50  0001 C CNN
F 3 "~" H 1360 2690 50  0001 C CNN
	1    1360 2690
	0    1    1    0   
$EndComp
$Comp
L Device:R R23
U 1 1 5DA9550A
P 1370 3390
F 0 "R23" V 1280 3310 50  0000 C CNN
F 1 "12k" V 1280 3480 50  0000 C CNN
F 2 "Resistor_SMD:R_0805_2012Metric" V 1300 3390 50  0001 C CNN
F 3 "~" H 1370 3390 50  0001 C CNN
	1    1370 3390
	0    1    1    0   
$EndComp
Wire Wire Line
	1510 2690 1770 2690
Wire Wire Line
	1220 3390 1060 3390
Wire Wire Line
	1770 3390 1520 3390
Wire Wire Line
	1130 2690 1130 3090
Wire Wire Line
	1130 3090 2070 3090
Wire Wire Line
	2070 3090 2070 3190
Wire Wire Line
	970  2690 1130 2690
Connection ~ 1130 2690
Wire Wire Line
	1130 2690 1210 2690
Wire Wire Line
	1060 3390 1060 2890
Wire Wire Line
	1060 2890 2070 2890
Connection ~ 1060 3390
Wire Wire Line
	2070 3590 2070 3690
Wire Wire Line
	2070 3690 2630 3690
Wire Wire Line
	2070 2390 2670 2390
Wire Wire Line
	2070 2390 2070 2490
Wire Notes Line
	3110 3800 470  3800
Text Notes 940  2410 0    50   ~ 0
ESP Reset Circuit
Wire Notes Line
	3110 5200 470  5200
Wire Notes Line
	3110 470  3110 7790
$Comp
L power:GND #PWR034
U 1 1 5DAFACA3
P 1740 6180
F 0 "#PWR034" H 1740 5930 50  0001 C CNN
F 1 "GND" H 1745 6007 50  0000 C CNN
F 2 "" H 1740 6180 50  0001 C CNN
F 3 "" H 1740 6180 50  0001 C CNN
	1    1740 6180
	1    0    0    -1  
$EndComp
Wire Wire Line
	1560 6110 1740 6110
Wire Wire Line
	1740 6110 1740 6180
Wire Wire Line
	970  5620 970  5690
Text Notes 1320 5620 0    50   ~ 0
Manual Reset Switch
$Comp
L Switch:SW_Push SW3
U 1 1 5DB1800C
P 1360 6110
F 0 "SW3" H 1360 6395 50  0000 C CNN
F 1 "SW_Push" H 1360 6304 50  0000 C CNN
F 2 "Button_Switch_SMD:SW_SPST_SKQG_WithStem" H 1360 6310 50  0001 C CNN
F 3 "~" H 1360 6310 50  0001 C CNN
	1    1360 6110
	1    0    0    -1  
$EndComp
Wire Wire Line
	1160 6110 1150 6110
Wire Wire Line
	970  5990 970  6110
$Comp
L Device:R R21
U 1 1 5DAF49C7
P 970 5840
F 0 "R21" V 880 5760 50  0000 C CNN
F 1 "1k" V 880 5930 50  0000 C CNN
F 2 "Resistor_SMD:R_0805_2012Metric" V 900 5840 50  0001 C CNN
F 3 "~" H 970 5840 50  0001 C CNN
	1    970  5840
	-1   0    0    1   
$EndComp
$Comp
L Connector:USB_B_Micro J8
U 1 1 5DEBCFF0
P 4310 3560
F 0 "J8" H 4367 4027 50  0000 C CNN
F 1 "USB_B_Micro" H 4367 3936 50  0000 C CNN
F 2 "Connector_USB:USB_Micro-B_GCT_USB3076-30-A" H 4460 3510 50  0001 C CNN
F 3 "~" H 4460 3510 50  0001 C CNN
	1    4310 3560
	1    0    0    -1  
$EndComp
$Comp
L power:GND #PWR037
U 1 1 5DD6DEA7
P 4310 4030
F 0 "#PWR037" H 4310 3780 50  0001 C CNN
F 1 "GND" H 4315 3857 50  0000 C CNN
F 2 "" H 4310 4030 50  0001 C CNN
F 3 "" H 4310 4030 50  0001 C CNN
	1    4310 4030
	1    0    0    -1  
$EndComp
Wire Wire Line
	4310 4030 4310 3960
$Comp
L power:GND #PWR039
U 1 1 5DD6EFFA
P 6050 4410
F 0 "#PWR039" H 6050 4160 50  0001 C CNN
F 1 "GND" H 6055 4237 50  0000 C CNN
F 2 "" H 6050 4410 50  0001 C CNN
F 3 "" H 6050 4410 50  0001 C CNN
	1    6050 4410
	1    0    0    -1  
$EndComp
Wire Wire Line
	790  3390 1060 3390
Wire Wire Line
	4610 3560 5140 3560
Wire Wire Line
	5140 3560 5140 3440
Wire Wire Line
	5140 3440 5650 3440
Wire Wire Line
	4610 3660 5260 3660
Wire Wire Line
	5260 3660 5260 3540
Wire Wire Line
	5260 3540 5650 3540
Wire Wire Line
	4210 3960 4310 3960
Connection ~ 4310 3960
$Comp
L Device:D_Schottky D?
U 1 1 5DD7C762
P 4820 3360
AR Path="/5DD7C762" Ref="D?"  Part="1" 
AR Path="/5DE868BC/5DD7C762" Ref="D9"  Part="1" 
F 0 "D9" H 4680 3470 50  0000 L CNN
F 1 "SS34" H 4830 3470 50  0000 L CNN
F 2 "Diode_SMD:D_SMA" H 4820 3360 50  0001 C CNN
F 3 "http://www.chinesechip.com/files/2015-06/8b5aa353-e559-4708-bf71-5dbd56a0a342.pdf" H 4820 3360 50  0001 C CNN
	1    4820 3360
	-1   0    0    1   
$EndComp
Wire Wire Line
	4610 3360 4670 3360
Wire Wire Line
	4980 3360 4970 3360
Text HLabel 2670 2390 2    50   Input ~ 0
RST
Text HLabel 2630 3690 2    50   Input ~ 0
GPIO0
Text Label 970  2690 2    50   ~ 0
DTR
Text Label 790  3390 2    50   ~ 0
RTS
Text Label 6700 3840 0    50   ~ 0
DTR
Text Label 6700 3940 0    50   ~ 0
RTS
Wire Wire Line
	6450 3840 6700 3840
Wire Wire Line
	6450 3940 6700 3940
Text HLabel 970  5620 1    50   Input ~ 0
RST
$Comp
L Device:Crystal Y1
U 1 1 5DDB3FB8
P 1500 4560
F 0 "Y1" H 1500 4828 50  0000 C CNN
F 1 "Crystal" H 1500 4737 50  0000 C CNN
F 2 "Crystal:Crystal_SMD_HC49-SD" H 1500 4560 50  0001 C CNN
F 3 "~" H 1500 4560 50  0001 C CNN
	1    1500 4560
	1    0    0    -1  
$EndComp
$Comp
L Device:C C?
U 1 1 5DDB5DAD
P 1190 4830
AR Path="/5DDB5DAD" Ref="C?"  Part="1" 
AR Path="/5DA7086F/5DDB5DAD" Ref="C?"  Part="1" 
AR Path="/5DE868BC/5DDB5DAD" Ref="C12"  Part="1" 
F 0 "C12" H 1368 4876 50  0000 L CNN
F 1 "22pF" H 1368 4785 50  0000 L CNN
F 2 "Capacitor_SMD:C_0805_2012Metric" H 1190 4830 50  0001 C CNN
F 3 "~" H 1190 4830 50  0001 C CNN
	1    1190 4830
	1    0    0    -1  
$EndComp
$Comp
L Device:C C?
U 1 1 5DDB5DB3
P 1770 4830
AR Path="/5DDB5DB3" Ref="C?"  Part="1" 
AR Path="/5DA7086F/5DDB5DB3" Ref="C?"  Part="1" 
AR Path="/5DE868BC/5DDB5DB3" Ref="C13"  Part="1" 
F 0 "C13" H 1948 4876 50  0000 L CNN
F 1 "22pF" H 1948 4785 50  0000 L CNN
F 2 "Capacitor_SMD:C_0805_2012Metric" H 1770 4830 50  0001 C CNN
F 3 "~" H 1770 4830 50  0001 C CNN
	1    1770 4830
	1    0    0    -1  
$EndComp
$Comp
L power:GND #PWR033
U 1 1 5DDB6715
P 1190 4980
F 0 "#PWR033" H 1190 4730 50  0001 C CNN
F 1 "GND" H 1195 4807 50  0000 C CNN
F 2 "" H 1190 4980 50  0001 C CNN
F 3 "" H 1190 4980 50  0001 C CNN
	1    1190 4980
	1    0    0    -1  
$EndComp
$Comp
L power:GND #PWR035
U 1 1 5DDB6FFF
P 1770 4980
F 0 "#PWR035" H 1770 4730 50  0001 C CNN
F 1 "GND" H 1775 4807 50  0000 C CNN
F 2 "" H 1770 4980 50  0001 C CNN
F 3 "" H 1770 4980 50  0001 C CNN
	1    1770 4980
	1    0    0    -1  
$EndComp
Wire Wire Line
	1770 4680 1770 4560
Wire Wire Line
	1770 4560 1650 4560
Wire Wire Line
	1190 4680 1190 4560
Wire Wire Line
	1190 4560 1350 4560
Wire Wire Line
	1770 4560 1770 4300
Wire Wire Line
	1770 4300 2590 4300
Connection ~ 1770 4560
Wire Wire Line
	1190 4560 1190 4140
Wire Wire Line
	1190 4140 2590 4140
Connection ~ 1190 4560
Text Label 2590 4140 0    50   ~ 0
XI
Text Label 2590 4300 0    50   ~ 0
XO
Text Label 5470 3740 2    50   ~ 0
XI
Wire Wire Line
	5650 3740 5470 3740
Wire Wire Line
	5650 3940 5470 3940
Text Label 5470 3940 2    50   ~ 0
XO
Text Notes 860  3960 0    50   ~ 0
Crystal Oscillator
NoConn ~ 6450 3440
NoConn ~ 6450 3540
NoConn ~ 6450 3640
NoConn ~ 6450 3740
Wire Wire Line
	6050 4410 6050 4140
$Comp
L Interface_USB:CH340G U5
U 1 1 5DEBC833
P 6050 3540
F 0 "U5" H 6050 2851 50  0000 C CNN
F 1 "CH340G" H 6050 2760 50  0000 C CNN
F 2 "Package_SO:SOIC-16_3.9x9.9mm_P1.27mm" H 6100 2990 50  0001 L CNN
F 3 "http://www.datasheet5.com/pdf-local-2195953" H 5700 4340 50  0001 C CNN
	1    6050 3540
	1    0    0    -1  
$EndComp
NoConn ~ 5650 3240
$Comp
L Device:R R24
U 1 1 5DDCF722
P 7000 3140
F 0 "R24" V 6910 3060 50  0000 C CNN
F 1 "470" V 6910 3230 50  0000 C CNN
F 2 "Resistor_SMD:R_0805_2012Metric" V 6930 3140 50  0001 C CNN
F 3 "~" H 7000 3140 50  0001 C CNN
	1    7000 3140
	0    1    1    0   
$EndComp
$Comp
L Device:R R25
U 1 1 5DDD0556
P 7000 3240
F 0 "R25" V 6910 3160 50  0000 C CNN
F 1 "470" V 6910 3330 50  0000 C CNN
F 2 "Resistor_SMD:R_0805_2012Metric" V 6930 3240 50  0001 C CNN
F 3 "~" H 7000 3240 50  0001 C CNN
	1    7000 3240
	0    -1   -1   0   
$EndComp
Text HLabel 7360 3140 2    50   Input ~ 0
TXD
Text HLabel 7360 3240 2    50   Input ~ 0
RXD
Wire Wire Line
	7150 3140 7360 3140
Wire Wire Line
	7150 3240 7360 3240
NoConn ~ 4610 3760
$Comp
L Device:C C?
U 1 1 5DD81F92
P 6950 1980
AR Path="/5DD81F92" Ref="C?"  Part="1" 
AR Path="/5DA7086F/5DD81F92" Ref="C?"  Part="1" 
AR Path="/5DE868BC/5DD81F92" Ref="C19"  Part="1" 
F 0 "C19" H 7050 2030 50  0000 L CNN
F 1 "10uF" H 7050 1930 50  0000 L CNN
F 2 "Capacitor_SMD:C_0805_2012Metric" H 6950 1980 50  0001 C CNN
F 3 "~" H 6950 1980 50  0001 C CNN
	1    6950 1980
	1    0    0    -1  
$EndComp
$Comp
L Device:C C?
U 1 1 5DD81F8C
P 5350 1980
AR Path="/5DD81F8C" Ref="C?"  Part="1" 
AR Path="/5DA7086F/5DD81F8C" Ref="C?"  Part="1" 
AR Path="/5DE868BC/5DD81F8C" Ref="C15"  Part="1" 
F 0 "C15" H 5528 2026 50  0000 L CNN
F 1 "100nF" H 5528 1935 50  0000 L CNN
F 2 "Capacitor_SMD:C_0805_2012Metric" H 5350 1980 50  0001 C CNN
F 3 "~" H 5350 1980 50  0001 C CNN
	1    5350 1980
	1    0    0    -1  
$EndComp
$Comp
L power:GND #PWR038
U 1 1 5DD8AA62
P 5350 2210
F 0 "#PWR038" H 5350 1960 50  0001 C CNN
F 1 "GND" H 5355 2037 50  0000 C CNN
F 2 "" H 5350 2210 50  0001 C CNN
F 3 "" H 5350 2210 50  0001 C CNN
	1    5350 2210
	1    0    0    -1  
$EndComp
Wire Wire Line
	6950 1780 6950 1830
Wire Wire Line
	6500 1830 6500 1780
Wire Wire Line
	6500 1780 6950 1780
Wire Wire Line
	5350 1830 5350 1780
Wire Wire Line
	5350 2130 5350 2210
Wire Wire Line
	6500 2210 6500 2130
Wire Wire Line
	6500 2210 6950 2210
Wire Wire Line
	6950 2210 6950 2130
Connection ~ 6500 2210
Connection ~ 5350 2210
Wire Wire Line
	6950 1780 7390 1780
Wire Wire Line
	6050 2860 6050 2940
Connection ~ 6950 1780
Wire Wire Line
	6050 2860 5950 2860
Wire Wire Line
	5950 2860 5950 2940
Connection ~ 6050 2860
Wire Wire Line
	7390 1780 7390 2860
$Comp
L Device:C C?
U 1 1 5DE218A1
P 6050 2610
AR Path="/5DE218A1" Ref="C?"  Part="1" 
AR Path="/5DA7086F/5DE218A1" Ref="C?"  Part="1" 
AR Path="/5DE868BC/5DE218A1" Ref="C16"  Part="1" 
F 0 "C16" H 6150 2660 50  0000 L CNN
F 1 "10uF" H 6150 2560 50  0000 L CNN
F 2 "Capacitor_SMD:C_0805_2012Metric" H 6050 2610 50  0001 C CNN
F 3 "~" H 6050 2610 50  0001 C CNN
	1    6050 2610
	-1   0    0    1   
$EndComp
$Comp
L Device:C C?
U 1 1 5DE218A7
P 6500 2610
AR Path="/5DE218A7" Ref="C?"  Part="1" 
AR Path="/5DA7086F/5DE218A7" Ref="C?"  Part="1" 
AR Path="/5DE868BC/5DE218A7" Ref="C18"  Part="1" 
F 0 "C18" H 6600 2660 50  0000 L CNN
F 1 "100nF" H 6600 2560 50  0000 L CNN
F 2 "Capacitor_SMD:C_0805_2012Metric" H 6500 2610 50  0001 C CNN
F 3 "~" H 6500 2610 50  0001 C CNN
	1    6500 2610
	-1   0    0    1   
$EndComp
Wire Wire Line
	6050 2860 6050 2760
Wire Wire Line
	6050 2460 6050 2210
Connection ~ 6050 2210
Wire Wire Line
	6050 2210 6500 2210
Wire Wire Line
	7390 2860 6500 2860
Wire Wire Line
	6500 2460 6500 2210
Wire Wire Line
	6500 2760 6500 2860
Connection ~ 6500 2860
Wire Wire Line
	6500 2860 6050 2860
$Comp
L power:+3.3V #PWR040
U 1 1 5DE38E4E
P 7390 1780
F 0 "#PWR040" H 7390 1630 50  0001 C CNN
F 1 "+3.3V" H 7405 1953 50  0000 C CNN
F 2 "" H 7390 1780 50  0001 C CNN
F 3 "" H 7390 1780 50  0001 C CNN
	1    7390 1780
	1    0    0    -1  
$EndComp
Connection ~ 7390 1780
$Comp
L Device:C C?
U 1 1 5DE3F185
P 4660 1990
AR Path="/5DE3F185" Ref="C?"  Part="1" 
AR Path="/5DA7086F/5DE3F185" Ref="C?"  Part="1" 
AR Path="/5DE868BC/5DE3F185" Ref="C14"  Part="1" 
F 0 "C14" H 4760 2040 50  0000 L CNN
F 1 "10uF" H 4760 1940 50  0000 L CNN
F 2 "Capacitor_SMD:C_0805_2012Metric" H 4660 1990 50  0001 C CNN
F 3 "~" H 4660 1990 50  0001 C CNN
	1    4660 1990
	1    0    0    -1  
$EndComp
Wire Wire Line
	4660 1840 4660 1780
Wire Wire Line
	5350 2210 4660 2210
Wire Wire Line
	4660 2210 4660 2140
Wire Wire Line
	4660 1780 5350 1780
Wire Wire Line
	4660 1780 4150 1780
Wire Wire Line
	4150 1780 4150 2750
Wire Wire Line
	4150 2750 4980 2750
Wire Wire Line
	4980 2750 4980 3360
Connection ~ 4660 1780
Wire Wire Line
	5350 2210 6050 2210
$Comp
L Device:C C?
U 1 1 5DD8E842
P 6500 1980
AR Path="/5DD8E842" Ref="C?"  Part="1" 
AR Path="/5DA7086F/5DD8E842" Ref="C?"  Part="1" 
AR Path="/5DE868BC/5DD8E842" Ref="C17"  Part="1" 
F 0 "C17" H 6600 2030 50  0000 L CNN
F 1 "100nF" H 6600 1930 50  0000 L CNN
F 2 "Capacitor_SMD:C_0805_2012Metric" H 6500 1980 50  0001 C CNN
F 3 "~" H 6500 1980 50  0001 C CNN
	1    6500 1980
	1    0    0    -1  
$EndComp
$Comp
L Regulator_Linear:LM1117-3.3 U4
U 1 1 5DDEE4EC
P 6050 1780
F 0 "U4" H 6050 2022 50  0000 C CNN
F 1 "LM1117-3.3" H 6050 1931 50  0000 C CNN
F 2 "Package_TO_SOT_SMD:SOT-223-3_TabPin2" H 6050 1780 50  0001 C CNN
F 3 "http://www.ti.com/lit/ds/symlink/lm1117.pdf" H 6050 1780 50  0001 C CNN
	1    6050 1780
	1    0    0    -1  
$EndComp
Wire Wire Line
	5750 1780 5350 1780
Connection ~ 5350 1780
Wire Wire Line
	6350 1780 6500 1780
Connection ~ 6500 1780
Wire Wire Line
	6050 2080 6050 2210
$Comp
L power:+5V #PWR036
U 1 1 5DE768E0
P 4150 1780
F 0 "#PWR036" H 4150 1630 50  0001 C CNN
F 1 "+5V" H 4165 1953 50  0000 C CNN
F 2 "" H 4150 1780 50  0001 C CNN
F 3 "" H 4150 1780 50  0001 C CNN
	1    4150 1780
	1    0    0    -1  
$EndComp
Connection ~ 4150 1780
$Comp
L Connector_Generic:Conn_01x02 J?
U 1 1 5E0B8A51
P 1320 6490
AR Path="/5E0B8A51" Ref="J?"  Part="1" 
AR Path="/5DE868BC/5E0B8A51" Ref="J7"  Part="1" 
F 0 "J7" V 1280 6150 50  0000 L CNN
F 1 "Reset_ext" V 1360 5920 50  0000 L CNN
F 2 "Connector_JST:JST_XH_B2B-XH-A_1x02_P2.50mm_Vertical" H 1320 6490 50  0001 C CNN
F 3 "~" H 1320 6490 50  0001 C CNN
	1    1320 6490
	0    -1   1    0   
$EndComp
Wire Wire Line
	1320 6290 1320 6200
Wire Wire Line
	1320 6200 1150 6200
Wire Wire Line
	1150 6200 1150 6110
Connection ~ 1150 6110
Wire Wire Line
	1150 6110 970  6110
Wire Wire Line
	1420 6290 1420 6200
Wire Wire Line
	1420 6200 1560 6200
Wire Wire Line
	1560 6200 1560 6110
Connection ~ 1560 6110
Text Label 6470 3140 0    50   ~ 0
TX_USB
Text Label 6460 3240 0    50   ~ 0
RX_USB
Wire Wire Line
	6450 3140 6850 3140
Wire Wire Line
	6450 3240 6850 3240
$EndSCHEMATC
